<?xml version="1.0" encoding="utf-8"?>
<!DOCTYPE eagle SYSTEM "eagle.dtd">
<eagle version="7.2.0">
<drawing>
<settings>
<setting alwaysvectorfont="no"/>
<setting verticaltext="up"/>
</settings>
<grid distance="0.1" unitdist="inch" unit="inch" style="lines" multiple="1" display="no" altdistance="0.01" altunitdist="inch" altunit="inch"/>
<layers>
<layer number="1" name="Top" color="4" fill="1" visible="yes" active="yes"/>
<layer number="2" name="Route2" color="1" fill="3" visible="no" active="yes"/>
<layer number="3" name="Route3" color="4" fill="3" visible="no" active="yes"/>
<layer number="4" name="Route4" color="1" fill="4" visible="no" active="yes"/>
<layer number="5" name="Route5" color="4" fill="4" visible="no" active="yes"/>
<layer number="6" name="Route6" color="1" fill="8" visible="no" active="yes"/>
<layer number="7" name="Route7" color="4" fill="8" visible="no" active="yes"/>
<layer number="8" name="Route8" color="1" fill="2" visible="no" active="yes"/>
<layer number="9" name="Route9" color="4" fill="2" visible="no" active="yes"/>
<layer number="10" name="Route10" color="1" fill="7" visible="no" active="yes"/>
<layer number="11" name="Route11" color="4" fill="7" visible="no" active="yes"/>
<layer number="12" name="Route12" color="1" fill="5" visible="no" active="yes"/>
<layer number="13" name="Route13" color="4" fill="5" visible="no" active="yes"/>
<layer number="14" name="Route14" color="1" fill="6" visible="no" active="yes"/>
<layer number="15" name="Route15" color="4" fill="6" visible="no" active="yes"/>
<layer number="16" name="Bottom" color="1" fill="1" visible="yes" active="yes"/>
<layer number="17" name="Pads" color="2" fill="1" visible="yes" active="yes"/>
<layer number="18" name="Vias" color="2" fill="1" visible="yes" active="yes"/>
<layer number="19" name="Unrouted" color="6" fill="1" visible="yes" active="yes"/>
<layer number="20" name="Dimension" color="15" fill="1" visible="yes" active="yes"/>
<layer number="21" name="tPlace" color="7" fill="1" visible="yes" active="yes"/>
<layer number="22" name="bPlace" color="7" fill="1" visible="yes" active="yes"/>
<layer number="23" name="tOrigins" color="15" fill="1" visible="yes" active="yes"/>
<layer number="24" name="bOrigins" color="15" fill="1" visible="yes" active="yes"/>
<layer number="25" name="tNames" color="7" fill="1" visible="yes" active="yes"/>
<layer number="26" name="bNames" color="7" fill="1" visible="yes" active="yes"/>
<layer number="27" name="tValues" color="7" fill="1" visible="yes" active="yes"/>
<layer number="28" name="bValues" color="7" fill="1" visible="yes" active="yes"/>
<layer number="29" name="tStop" color="7" fill="3" visible="no" active="yes"/>
<layer number="30" name="bStop" color="7" fill="6" visible="no" active="yes"/>
<layer number="31" name="tCream" color="7" fill="4" visible="no" active="yes"/>
<layer number="32" name="bCream" color="7" fill="5" visible="no" active="yes"/>
<layer number="33" name="tFinish" color="6" fill="3" visible="no" active="yes"/>
<layer number="34" name="bFinish" color="6" fill="6" visible="no" active="yes"/>
<layer number="35" name="tGlue" color="7" fill="4" visible="no" active="yes"/>
<layer number="36" name="bGlue" color="7" fill="5" visible="no" active="yes"/>
<layer number="37" name="tTest" color="7" fill="1" visible="no" active="yes"/>
<layer number="38" name="bTest" color="7" fill="1" visible="no" active="yes"/>
<layer number="39" name="tKeepout" color="4" fill="11" visible="yes" active="yes"/>
<layer number="40" name="bKeepout" color="1" fill="11" visible="yes" active="yes"/>
<layer number="41" name="tRestrict" color="4" fill="10" visible="yes" active="yes"/>
<layer number="42" name="bRestrict" color="1" fill="10" visible="yes" active="yes"/>
<layer number="43" name="vRestrict" color="2" fill="10" visible="yes" active="yes"/>
<layer number="44" name="Drills" color="7" fill="1" visible="no" active="yes"/>
<layer number="45" name="Holes" color="7" fill="1" visible="no" active="yes"/>
<layer number="46" name="Milling" color="3" fill="1" visible="no" active="yes"/>
<layer number="47" name="Measures" color="7" fill="1" visible="no" active="yes"/>
<layer number="48" name="Document" color="7" fill="1" visible="yes" active="yes"/>
<layer number="49" name="Reference" color="7" fill="1" visible="yes" active="yes"/>
<layer number="51" name="tDocu" color="7" fill="1" visible="yes" active="yes"/>
<layer number="52" name="bDocu" color="7" fill="1" visible="yes" active="yes"/>
<layer number="90" name="Modules" color="5" fill="1" visible="yes" active="yes"/>
<layer number="91" name="Nets" color="2" fill="1" visible="yes" active="yes"/>
<layer number="92" name="Busses" color="1" fill="1" visible="yes" active="yes"/>
<layer number="93" name="Pins" color="2" fill="1" visible="yes" active="yes"/>
<layer number="94" name="Symbols" color="4" fill="1" visible="yes" active="yes"/>
<layer number="95" name="Names" color="7" fill="1" visible="yes" active="yes"/>
<layer number="96" name="Values" color="7" fill="1" visible="yes" active="yes"/>
<layer number="97" name="Info" color="7" fill="1" visible="yes" active="yes"/>
<layer number="98" name="Guide" color="6" fill="1" visible="yes" active="yes"/>
</layers>
<library>
<packages>
<package name="APDS9309">
<smd name="GND" x="-0.65" y="0.65" dx="0.9" dy="0.4" layer="1" rot="R90"/>
<smd name="ADDRSEL" x="0" y="0.65" dx="0.9" dy="0.4" layer="1" rot="R90"/>
<smd name="VDD" x="0.65" y="0.65" dx="0.9" dy="0.4" layer="1" rot="R90"/>
<smd name="SDA" x="0.65" y="-0.65" dx="0.9" dy="0.4" layer="1" rot="R90"/>
<smd name="INT" x="0" y="-0.65" dx="0.9" dy="0.4" layer="1" rot="R90"/>
<smd name="SCL" x="-0.65" y="-0.65" dx="0.9" dy="0.4" layer="1" rot="R90"/>
<wire x1="-1" y1="1" x2="-1" y2="-1" width="0.127" layer="21"/>
<wire x1="-1" y1="-1" x2="1" y2="-1" width="0.127" layer="21"/>
<wire x1="1" y1="-1" x2="1" y2="1" width="0.127" layer="21"/>
<wire x1="1" y1="1" x2="-1" y2="1" width="0.127" layer="21"/>
<circle x="-1.377" y="-0.8105" radius="0.111803125" width="0.127" layer="21"/>
<text x="-1.043" y="1.2335" size="0.3048" layer="25">&gt;Name</text>
<text x="-0.796" y="-1.527" size="0.3048" layer="27">&gt;Value</text>
<text x="-1.277" y="-1.2455" size="0.3048" layer="21" rot="R90">1</text>
</package>
</packages>
<symbols>
<symbol name="LIGHT">
<wire x1="-22.86" y1="12.7" x2="-22.86" y2="-12.7" width="0.254" layer="94"/>
<wire x1="-22.86" y1="-12.7" x2="20.32" y2="-12.7" width="0.254" layer="94"/>
<wire x1="20.32" y1="-12.7" x2="20.32" y2="12.7" width="0.254" layer="94"/>
<wire x1="20.32" y1="12.7" x2="-22.86" y2="12.7" width="0.254" layer="94"/>
<pin name="P$1" x="25.4" y="7.62" length="middle" rot="R180"/>
<pin name="P$2" x="25.4" y="0" length="middle" rot="R180"/>
<pin name="P$3" x="25.4" y="-7.62" length="middle" rot="R180"/>
<pin name="P$4" x="-27.94" y="-7.62" length="middle" direction="pwr"/>
<pin name="P$5" x="-27.94" y="0" length="middle"/>
<pin name="P$6" x="-27.94" y="7.62" length="middle" direction="pwr"/>
<text x="-22.86" y="15.24" size="2.54" layer="95">&gt;NAME</text>
<text x="-22.86" y="-15.24" size="2.54" layer="96">&gt;VALUE</text>
</symbol>
</symbols>
<devicesets>
<deviceset name="LIGHT">
<gates>
<gate name="G$1" symbol="LIGHT" x="0" y="0"/>
</gates>
<devices>
<device name="" package="APDS9309">
<connects>
<connect gate="G$1" pin="P$1" pad="SCL"/>
<connect gate="G$1" pin="P$2" pad="INT"/>
<connect gate="G$1" pin="P$3" pad="SDA"/>
<connect gate="G$1" pin="P$4" pad="VDD"/>
<connect gate="G$1" pin="P$5" pad="ADDRSEL"/>
<connect gate="G$1" pin="P$6" pad="GND"/>
</connects>
<technologies>
<technology name=""/>
</technologies>
</device>
</devices>
</deviceset>
</devicesets>
</library>
</drawing>
</eagle>
