<?xml version="1.0" encoding="utf-8"?>
<!DOCTYPE eagle SYSTEM "eagle.dtd">
<eagle version="7.2.0">
<drawing>
<settings>
<setting alwaysvectorfont="no"/>
<setting verticaltext="up"/>
</settings>
<grid distance="0.05" unitdist="mm" unit="mm" style="lines" multiple="1" display="yes" altdistance="0.025" altunitdist="inch" altunit="mm"/>
<layers>
<layer number="1" name="Top" color="4" fill="1" visible="yes" active="yes"/>
<layer number="16" name="Bottom" color="1" fill="1" visible="yes" active="yes"/>
<layer number="17" name="Pads" color="2" fill="1" visible="yes" active="yes"/>
<layer number="18" name="Vias" color="2" fill="1" visible="no" active="yes"/>
<layer number="19" name="Unrouted" color="6" fill="1" visible="no" active="yes"/>
<layer number="20" name="Dimension" color="15" fill="1" visible="yes" active="yes"/>
<layer number="21" name="tPlace" color="7" fill="1" visible="yes" active="yes"/>
<layer number="22" name="bPlace" color="7" fill="1" visible="no" active="yes"/>
<layer number="23" name="tOrigins" color="15" fill="1" visible="yes" active="yes"/>
<layer number="24" name="bOrigins" color="15" fill="1" visible="no" active="yes"/>
<layer number="25" name="tNames" color="7" fill="1" visible="yes" active="yes"/>
<layer number="26" name="bNames" color="7" fill="1" visible="no" active="yes"/>
<layer number="27" name="tValues" color="7" fill="1" visible="yes" active="yes"/>
<layer number="28" name="bValues" color="7" fill="1" visible="no" active="yes"/>
<layer number="29" name="tStop" color="7" fill="3" visible="no" active="yes"/>
<layer number="30" name="bStop" color="7" fill="6" visible="no" active="yes"/>
<layer number="31" name="tCream" color="7" fill="4" visible="no" active="yes"/>
<layer number="32" name="bCream" color="7" fill="5" visible="no" active="yes"/>
<layer number="33" name="tFinish" color="6" fill="3" visible="no" active="yes"/>
<layer number="34" name="bFinish" color="6" fill="6" visible="no" active="yes"/>
<layer number="35" name="tGlue" color="7" fill="4" visible="no" active="yes"/>
<layer number="36" name="bGlue" color="7" fill="5" visible="no" active="yes"/>
<layer number="37" name="tTest" color="7" fill="1" visible="no" active="yes"/>
<layer number="38" name="bTest" color="7" fill="1" visible="no" active="yes"/>
<layer number="39" name="tKeepout" color="4" fill="11" visible="no" active="yes"/>
<layer number="40" name="bKeepout" color="1" fill="11" visible="no" active="yes"/>
<layer number="41" name="tRestrict" color="4" fill="10" visible="no" active="yes"/>
<layer number="42" name="bRestrict" color="1" fill="10" visible="no" active="yes"/>
<layer number="43" name="vRestrict" color="2" fill="10" visible="no" active="yes"/>
<layer number="44" name="Drills" color="7" fill="1" visible="no" active="yes"/>
<layer number="45" name="Holes" color="7" fill="1" visible="no" active="yes"/>
<layer number="46" name="Milling" color="3" fill="1" visible="yes" active="yes"/>
<layer number="47" name="Measures" color="7" fill="1" visible="no" active="yes"/>
<layer number="48" name="Document" color="7" fill="1" visible="no" active="yes"/>
<layer number="49" name="Reference" color="7" fill="1" visible="no" active="yes"/>
<layer number="51" name="tDocu" color="7" fill="1" visible="yes" active="yes"/>
<layer number="52" name="bDocu" color="7" fill="1" visible="no" active="yes"/>
<layer number="91" name="Nets" color="2" fill="1" visible="yes" active="yes"/>
<layer number="92" name="Busses" color="1" fill="1" visible="yes" active="yes"/>
<layer number="93" name="Pins" color="2" fill="1" visible="yes" active="yes"/>
<layer number="94" name="Symbols" color="4" fill="1" visible="yes" active="yes"/>
<layer number="95" name="Names" color="7" fill="1" visible="yes" active="yes"/>
<layer number="96" name="Values" color="7" fill="1" visible="yes" active="yes"/>
<layer number="97" name="Info" color="7" fill="1" visible="yes" active="yes"/>
<layer number="98" name="Guide" color="6" fill="1" visible="yes" active="yes"/>
<layer number="2" name="Route2" color="1" fill="3" visible="no" active="no"/>
<layer number="3" name="Route3" color="4" fill="3" visible="no" active="no"/>
<layer number="4" name="Route4" color="1" fill="4" visible="no" active="no"/>
<layer number="5" name="Route5" color="4" fill="4" visible="no" active="no"/>
<layer number="6" name="Route6" color="1" fill="8" visible="no" active="no"/>
<layer number="7" name="Route7" color="4" fill="8" visible="no" active="no"/>
<layer number="8" name="Route8" color="1" fill="2" visible="no" active="no"/>
<layer number="9" name="Route9" color="4" fill="2" visible="no" active="no"/>
<layer number="10" name="Route10" color="1" fill="7" visible="no" active="no"/>
<layer number="11" name="Route11" color="4" fill="7" visible="no" active="no"/>
<layer number="12" name="Route12" color="1" fill="5" visible="no" active="no"/>
<layer number="13" name="Route13" color="4" fill="5" visible="no" active="no"/>
<layer number="14" name="Route14" color="1" fill="6" visible="no" active="no"/>
<layer number="15" name="Route15" color="4" fill="6" visible="no" active="no"/>
</layers>
<library>
<description>&lt;b&gt;Solder Pads/Test Points&lt;/b&gt;&lt;p&gt;
&lt;author&gt;Created by librarian@cadsoft.de&lt;/author&gt;</description>
<packages>
<package name="MCS08">
<description>&lt;b&gt;SOLDER PAD&lt;/b&gt;&lt;p&gt;
drill 1.2 mm</description>
<wire x1="-1.397" y1="0.508" x2="-1.397" y2="-0.508" width="0.1524" layer="21"/>
<wire x1="0.508" y1="-1.397" x2="1.397" y2="-0.508" width="0.1524" layer="21"/>
<wire x1="0.508" y1="1.397" x2="1.397" y2="0.508" width="0.1524" layer="21"/>
<wire x1="1.397" y1="0.508" x2="1.397" y2="-0.508" width="0.1524" layer="21"/>
<wire x1="-1.397" y1="0.508" x2="-0.508" y2="1.397" width="0.1524" layer="21"/>
<wire x1="-0.508" y1="1.397" x2="0.508" y2="1.397" width="0.1524" layer="21"/>
<wire x1="-0.508" y1="-1.397" x2="-1.397" y2="-0.508" width="0.1524" layer="21"/>
<wire x1="0.508" y1="-1.397" x2="-0.508" y2="-1.397" width="0.1524" layer="21"/>
<circle x="0" y="0" radius="0.762" width="0.1524" layer="51"/>
<circle x="0" y="0" radius="0.381" width="0.254" layer="51"/>
<pad name="MP" x="0" y="0" drill="1.1938" diameter="2.159" shape="octagon"/>
<text x="-1.27" y="1.651" size="1.27" layer="25" ratio="10">&gt;NAME</text>
<text x="0" y="0.381" size="0.0254" layer="27">&gt;VALUE</text>
</package>
<package name="MCS10B">
<description>&lt;b&gt;SOLDER PAD&lt;/b&gt;&lt;p&gt;
drill 1.0 mm</description>
<wire x1="-1.397" y1="0.508" x2="-1.397" y2="-0.508" width="0.1524" layer="21"/>
<wire x1="0.508" y1="-1.397" x2="1.397" y2="-0.508" width="0.1524" layer="21"/>
<wire x1="0.508" y1="1.397" x2="1.397" y2="0.508" width="0.1524" layer="21"/>
<wire x1="1.397" y1="0.508" x2="1.397" y2="-0.508" width="0.1524" layer="21"/>
<wire x1="-1.397" y1="0.508" x2="-0.508" y2="1.397" width="0.1524" layer="21"/>
<wire x1="-0.508" y1="1.397" x2="0.508" y2="1.397" width="0.1524" layer="21"/>
<wire x1="-0.508" y1="-1.397" x2="-1.397" y2="-0.508" width="0.1524" layer="21"/>
<wire x1="0.508" y1="-1.397" x2="-0.508" y2="-1.397" width="0.1524" layer="21"/>
<circle x="0" y="0" radius="0.762" width="0.1524" layer="51"/>
<circle x="0" y="0" radius="0.381" width="0.254" layer="51"/>
<pad name="MP" x="0" y="0" drill="1.016" diameter="2.159" shape="octagon"/>
<text x="-1.27" y="1.651" size="1.27" layer="25" ratio="10">&gt;NAME</text>
<text x="0" y="0.381" size="0.0254" layer="27">&gt;VALUE</text>
</package>
<package name="SE11">
<description>&lt;b&gt;SOLDER PAD&lt;/b&gt;&lt;p&gt;
drill 1.1 mm</description>
<wire x1="-1.397" y1="0.508" x2="-1.397" y2="-0.508" width="0.1524" layer="21"/>
<wire x1="0.508" y1="-1.397" x2="1.397" y2="-0.508" width="0.1524" layer="21"/>
<wire x1="0.508" y1="1.397" x2="1.397" y2="0.508" width="0.1524" layer="21"/>
<wire x1="1.397" y1="0.508" x2="1.397" y2="-0.508" width="0.1524" layer="21"/>
<wire x1="-1.397" y1="0.508" x2="-0.508" y2="1.397" width="0.1524" layer="21"/>
<wire x1="-0.508" y1="1.397" x2="0.508" y2="1.397" width="0.1524" layer="21"/>
<wire x1="-0.508" y1="-1.397" x2="-1.397" y2="-0.508" width="0.1524" layer="21"/>
<wire x1="0.508" y1="-1.397" x2="-0.508" y2="-1.397" width="0.1524" layer="21"/>
<circle x="0" y="0" radius="0.762" width="0.1524" layer="51"/>
<circle x="0" y="0" radius="0.381" width="0.254" layer="51"/>
<pad name="MP" x="0" y="0" drill="1.1176" diameter="2.159" shape="octagon"/>
<text x="-1.27" y="1.651" size="1.27" layer="25" ratio="10">&gt;NAME</text>
<text x="0" y="0.381" size="0.0254" layer="27">&gt;VALUE</text>
</package>
<package name="SE13">
<description>&lt;b&gt;SOLDER PAD&lt;/b&gt;&lt;p&gt;
drill 1.3 mm</description>
<wire x1="-1.397" y1="0.508" x2="-1.397" y2="-0.508" width="0.1524" layer="21"/>
<wire x1="0.508" y1="-1.397" x2="1.397" y2="-0.508" width="0.1524" layer="21"/>
<wire x1="0.508" y1="1.397" x2="1.397" y2="0.508" width="0.1524" layer="21"/>
<wire x1="1.397" y1="0.508" x2="1.397" y2="-0.508" width="0.1524" layer="21"/>
<wire x1="-1.397" y1="0.508" x2="-0.508" y2="1.397" width="0.1524" layer="21"/>
<wire x1="-0.508" y1="1.397" x2="0.508" y2="1.397" width="0.1524" layer="21"/>
<wire x1="-0.508" y1="-1.397" x2="-1.397" y2="-0.508" width="0.1524" layer="21"/>
<wire x1="0.508" y1="-1.397" x2="-0.508" y2="-1.397" width="0.1524" layer="21"/>
<circle x="0" y="0" radius="0.762" width="0.1524" layer="51"/>
<circle x="0" y="0" radius="0.381" width="0.254" layer="51"/>
<pad name="MP" x="0" y="0" drill="1.3208" diameter="2.159" shape="octagon"/>
<text x="-1.27" y="1.651" size="1.27" layer="25" ratio="10">&gt;NAME</text>
<text x="0" y="0.381" size="0.0254" layer="27">&gt;VALUE</text>
</package>
<package name="SE14">
<description>&lt;b&gt;SOLDER PAD&lt;/b&gt;&lt;p&gt;
drill 1.4 mm</description>
<wire x1="-1.524" y1="0.635" x2="-1.524" y2="-0.635" width="0.1524" layer="21"/>
<wire x1="0.635" y1="-1.524" x2="1.524" y2="-0.635" width="0.1524" layer="21"/>
<wire x1="0.635" y1="1.524" x2="1.524" y2="0.635" width="0.1524" layer="21"/>
<wire x1="1.524" y1="0.635" x2="1.524" y2="-0.635" width="0.1524" layer="21"/>
<wire x1="-1.524" y1="0.635" x2="-0.635" y2="1.524" width="0.1524" layer="21"/>
<wire x1="-0.635" y1="1.524" x2="0.635" y2="1.524" width="0.1524" layer="21"/>
<wire x1="-0.635" y1="-1.524" x2="-1.524" y2="-0.635" width="0.1524" layer="21"/>
<wire x1="0.635" y1="-1.524" x2="-0.635" y2="-1.524" width="0.1524" layer="21"/>
<circle x="0" y="0" radius="0.762" width="0.1524" layer="51"/>
<circle x="0" y="0" radius="0.381" width="0.254" layer="51"/>
<pad name="MP" x="0" y="0" drill="1.397" diameter="2.54" shape="octagon"/>
<text x="-1.397" y="1.778" size="1.27" layer="25" ratio="10">&gt;NAME</text>
<text x="0" y="0.381" size="0.0254" layer="27">&gt;VALUE</text>
</package>
<package name="LSP10">
<description>&lt;b&gt;SOLDER PAD&lt;/b&gt;&lt;p&gt;
drill 1.0 mm</description>
<wire x1="-1.27" y1="0.254" x2="-1.27" y2="-0.254" width="0.1524" layer="21"/>
<wire x1="1.27" y1="0.254" x2="1.27" y2="-0.254" width="0.1524" layer="21"/>
<wire x1="1.27" y1="0.254" x2="1.143" y2="0.254" width="0.1524" layer="21"/>
<wire x1="1.27" y1="-0.254" x2="1.143" y2="-0.254" width="0.1524" layer="21"/>
<wire x1="-1.27" y1="-0.254" x2="-1.143" y2="-0.254" width="0.1524" layer="21"/>
<wire x1="-1.27" y1="0.254" x2="-1.143" y2="0.254" width="0.1524" layer="21"/>
<wire x1="1.143" y1="0.254" x2="0.635" y2="0.254" width="0.1524" layer="51"/>
<wire x1="-1.143" y1="-0.254" x2="-0.635" y2="-0.254" width="0.1524" layer="51"/>
<wire x1="0.635" y1="0.254" x2="0.635" y2="-0.254" width="0.1524" layer="51"/>
<wire x1="0.635" y1="0.254" x2="-0.635" y2="0.254" width="0.1524" layer="51"/>
<wire x1="0.635" y1="-0.254" x2="1.143" y2="-0.254" width="0.1524" layer="51"/>
<wire x1="-0.635" y1="0.254" x2="-0.635" y2="-0.254" width="0.1524" layer="51"/>
<wire x1="-0.635" y1="0.254" x2="-1.143" y2="0.254" width="0.1524" layer="51"/>
<wire x1="-0.635" y1="-0.254" x2="0.635" y2="-0.254" width="0.1524" layer="51"/>
<pad name="MP" x="0" y="0" drill="1.016" diameter="1.27"/>
<text x="-1.27" y="1.27" size="1.016" layer="25" ratio="10">&gt;NAME</text>
<text x="0" y="0.254" size="0.0254" layer="27">&gt;VALUE</text>
</package>
<package name="LSP11">
<description>&lt;b&gt;SOLDER PAD&lt;/b&gt;&lt;p&gt;
drill 1.1 mm</description>
<wire x1="-1.27" y1="0.254" x2="-1.27" y2="-0.254" width="0.1524" layer="21"/>
<wire x1="1.27" y1="0.254" x2="1.27" y2="-0.254" width="0.1524" layer="21"/>
<wire x1="1.27" y1="0.254" x2="1.143" y2="0.254" width="0.1524" layer="21"/>
<wire x1="1.27" y1="-0.254" x2="1.143" y2="-0.254" width="0.1524" layer="21"/>
<wire x1="-1.27" y1="-0.254" x2="-1.143" y2="-0.254" width="0.1524" layer="21"/>
<wire x1="-1.27" y1="0.254" x2="-1.143" y2="0.254" width="0.1524" layer="21"/>
<wire x1="1.143" y1="0.254" x2="0.635" y2="0.254" width="0.1524" layer="51"/>
<wire x1="-1.143" y1="-0.254" x2="-0.635" y2="-0.254" width="0.1524" layer="51"/>
<wire x1="0.635" y1="0.254" x2="0.635" y2="-0.254" width="0.1524" layer="51"/>
<wire x1="0.635" y1="0.254" x2="-0.635" y2="0.254" width="0.1524" layer="51"/>
<wire x1="0.635" y1="-0.254" x2="1.143" y2="-0.254" width="0.1524" layer="51"/>
<wire x1="-0.635" y1="0.254" x2="-0.635" y2="-0.254" width="0.1524" layer="51"/>
<wire x1="-0.635" y1="0.254" x2="-1.143" y2="0.254" width="0.1524" layer="51"/>
<wire x1="-0.635" y1="-0.254" x2="0.635" y2="-0.254" width="0.1524" layer="51"/>
<pad name="MP" x="0" y="0" drill="1.1176" diameter="2.159" shape="octagon"/>
<text x="-1.27" y="1.27" size="1.27" layer="25" ratio="10">&gt;NAME</text>
<text x="0" y="0.254" size="0.0254" layer="27">&gt;VALUE</text>
</package>
<package name="LSP13">
<description>&lt;b&gt;SOLDER PAD&lt;/b&gt;&lt;p&gt;
drill 1.3 mm</description>
<wire x1="-1.524" y1="0.254" x2="-1.524" y2="-0.254" width="0.1524" layer="21"/>
<wire x1="1.524" y1="0.254" x2="1.524" y2="-0.254" width="0.1524" layer="21"/>
<wire x1="1.524" y1="0.254" x2="1.143" y2="0.254" width="0.1524" layer="21"/>
<wire x1="1.524" y1="-0.254" x2="1.143" y2="-0.254" width="0.1524" layer="21"/>
<wire x1="-1.524" y1="-0.254" x2="-1.143" y2="-0.254" width="0.1524" layer="21"/>
<wire x1="-1.524" y1="0.254" x2="-1.143" y2="0.254" width="0.1524" layer="21"/>
<wire x1="1.143" y1="0.254" x2="0.635" y2="0.254" width="0.1524" layer="51"/>
<wire x1="-1.143" y1="-0.254" x2="-0.635" y2="-0.254" width="0.1524" layer="51"/>
<wire x1="0.635" y1="0.254" x2="0.635" y2="-0.254" width="0.1524" layer="51"/>
<wire x1="0.635" y1="0.254" x2="-0.635" y2="0.254" width="0.1524" layer="51"/>
<wire x1="0.635" y1="-0.254" x2="1.143" y2="-0.254" width="0.1524" layer="51"/>
<wire x1="-0.635" y1="0.254" x2="-0.635" y2="-0.254" width="0.1524" layer="51"/>
<wire x1="-0.635" y1="0.254" x2="-1.143" y2="0.254" width="0.1524" layer="51"/>
<wire x1="-0.635" y1="-0.254" x2="0.635" y2="-0.254" width="0.1524" layer="51"/>
<pad name="MP" x="0" y="0" drill="1.3208" diameter="2.159" shape="octagon"/>
<text x="-1.524" y="1.27" size="1.27" layer="25" ratio="10">&gt;NAME</text>
<text x="0" y="0.254" size="0.0254" layer="27">&gt;VALUE</text>
</package>
</packages>
<symbols>
<symbol name="LSP">
<wire x1="-1.016" y1="2.032" x2="1.016" y2="0" width="0.254" layer="94"/>
<wire x1="-1.016" y1="0" x2="1.016" y2="2.032" width="0.254" layer="94"/>
<circle x="0" y="1.016" radius="1.016" width="0.4064" layer="94"/>
<text x="-1.27" y="2.921" size="1.778" layer="95">&gt;NAME</text>
<pin name="MP" x="0" y="-2.54" visible="off" length="short" direction="pas" rot="R90"/>
</symbol>
</symbols>
<devicesets>
<deviceset name="MCS08" prefix="LSP">
<description>&lt;b&gt;SOLDER PAD&lt;/b&gt;&lt;p&gt; MC S0,8, drill 1.2 mm, distributor Buerklin, 08F130</description>
<gates>
<gate name="G$1" symbol="LSP" x="0" y="0"/>
</gates>
<devices>
<device name="" package="MCS08">
<connects>
<connect gate="G$1" pin="MP" pad="MP"/>
</connects>
<technologies>
<technology name=""/>
</technologies>
</device>
</devices>
</deviceset>
<deviceset name="LSP10" prefix="LSP">
<description>&lt;b&gt;SOLDER PAD&lt;/b&gt;&lt;p&gt; drill 1.0 mm, distributor Buerklin, 12H555</description>
<gates>
<gate name="1" symbol="LSP" x="0" y="0"/>
</gates>
<devices>
<device name="" package="LSP10">
<connects>
<connect gate="1" pin="MP" pad="MP"/>
</connects>
<technologies>
<technology name=""/>
</technologies>
</device>
</devices>
</deviceset>
<deviceset name="LSP11" prefix="LSP">
<description>&lt;b&gt;SOLDER PAD&lt;/b&gt;&lt;p&gt;
drill 1.1 mm</description>
<gates>
<gate name="1" symbol="LSP" x="0" y="0"/>
</gates>
<devices>
<device name="" package="LSP11">
<connects>
<connect gate="1" pin="MP" pad="MP"/>
</connects>
<technologies>
<technology name=""/>
</technologies>
</device>
</devices>
</deviceset>
<deviceset name="LSP13" prefix="LSP">
<description>&lt;b&gt;SOLDER PAD&lt;/b&gt;&lt;p&gt; drill 1.3 mm, distributor Buerklin, 12H562</description>
<gates>
<gate name="1" symbol="LSP" x="0" y="0"/>
</gates>
<devices>
<device name="" package="LSP13">
<connects>
<connect gate="1" pin="MP" pad="MP"/>
</connects>
<technologies>
<technology name=""/>
</technologies>
</device>
</devices>
</deviceset>
<deviceset name="MCS10B" prefix="LSP">
<description>&lt;b&gt;SOLDER PAD&lt;/b&gt;&lt;p&gt; MC S1, distributor Buerklin, 15F505</description>
<gates>
<gate name="1" symbol="LSP" x="0" y="0"/>
</gates>
<devices>
<device name="" package="MCS10B">
<connects>
<connect gate="1" pin="MP" pad="MP"/>
</connects>
<technologies>
<technology name=""/>
</technologies>
</device>
</devices>
</deviceset>
<deviceset name="SE11" prefix="LSP">
<description>&lt;b&gt;SOLDER PAD&lt;/b&gt;&lt;p&gt; RTM, drill 1,1mm, distributor Buerklin, 07F810</description>
<gates>
<gate name="1" symbol="LSP" x="0" y="0"/>
</gates>
<devices>
<device name="" package="SE11">
<connects>
<connect gate="1" pin="MP" pad="MP"/>
</connects>
<technologies>
<technology name=""/>
</technologies>
</device>
</devices>
</deviceset>
<deviceset name="SE13" prefix="LSP">
<description>&lt;b&gt;SOLDER PAD&lt;/b&gt;&lt;p&gt; E1542,  drill 1,3mm, distributor Buerklin, 07F815</description>
<gates>
<gate name="1" symbol="LSP" x="0" y="0"/>
</gates>
<devices>
<device name="" package="SE13">
<connects>
<connect gate="1" pin="MP" pad="MP"/>
</connects>
<technologies>
<technology name=""/>
</technologies>
</device>
</devices>
</deviceset>
<deviceset name="SE14" prefix="LSP">
<description>&lt;b&gt;SOLDER PAD&lt;/b&gt;&lt;p&gt; E1553,  drill 1,4mm, distributor Buerklin, 07F820</description>
<gates>
<gate name="1" symbol="LSP" x="0" y="0"/>
</gates>
<devices>
<device name="" package="SE14">
<connects>
<connect gate="1" pin="MP" pad="MP"/>
</connects>
<technologies>
<technology name=""/>
</technologies>
</device>
</devices>
</deviceset>
</devicesets>
</library>
</drawing>
</eagle>
