<?xml version="1.0" encoding="utf-8"?>
<!DOCTYPE eagle SYSTEM "eagle.dtd">
<eagle version="7.2.0">
<drawing>
<settings>
<setting alwaysvectorfont="no"/>
<setting verticaltext="up"/>
</settings>
<grid distance="0.05" unitdist="mm" unit="mm" style="lines" multiple="1" display="yes" altdistance="0.05" altunitdist="mm" altunit="mm"/>
<layers>
<layer number="1" name="Top" color="4" fill="1" visible="yes" active="yes"/>
<layer number="2" name="Route2" color="1" fill="3" visible="no" active="no"/>
<layer number="3" name="Route3" color="4" fill="3" visible="no" active="no"/>
<layer number="4" name="Route4" color="1" fill="4" visible="no" active="no"/>
<layer number="5" name="Route5" color="4" fill="4" visible="no" active="no"/>
<layer number="6" name="Route6" color="1" fill="8" visible="no" active="no"/>
<layer number="7" name="Route7" color="4" fill="8" visible="no" active="no"/>
<layer number="8" name="Route8" color="1" fill="2" visible="no" active="no"/>
<layer number="9" name="Route9" color="4" fill="2" visible="no" active="no"/>
<layer number="10" name="Route10" color="1" fill="7" visible="no" active="no"/>
<layer number="11" name="Route11" color="4" fill="7" visible="no" active="no"/>
<layer number="12" name="Route12" color="1" fill="5" visible="no" active="no"/>
<layer number="13" name="Route13" color="4" fill="5" visible="no" active="no"/>
<layer number="14" name="Route14" color="1" fill="6" visible="no" active="no"/>
<layer number="15" name="Route15" color="4" fill="6" visible="no" active="no"/>
<layer number="16" name="Bottom" color="1" fill="1" visible="yes" active="yes"/>
<layer number="17" name="Pads" color="2" fill="1" visible="yes" active="yes"/>
<layer number="18" name="Vias" color="2" fill="1" visible="yes" active="yes"/>
<layer number="19" name="Unrouted" color="6" fill="1" visible="yes" active="yes"/>
<layer number="20" name="Dimension" color="15" fill="1" visible="yes" active="yes"/>
<layer number="21" name="tPlace" color="7" fill="1" visible="yes" active="yes"/>
<layer number="22" name="bPlace" color="7" fill="1" visible="yes" active="yes"/>
<layer number="23" name="tOrigins" color="15" fill="1" visible="yes" active="yes"/>
<layer number="24" name="bOrigins" color="15" fill="1" visible="yes" active="yes"/>
<layer number="25" name="tNames" color="7" fill="1" visible="yes" active="yes"/>
<layer number="26" name="bNames" color="7" fill="1" visible="yes" active="yes"/>
<layer number="27" name="tValues" color="7" fill="1" visible="yes" active="yes"/>
<layer number="28" name="bValues" color="7" fill="1" visible="yes" active="yes"/>
<layer number="29" name="tStop" color="7" fill="3" visible="yes" active="yes"/>
<layer number="30" name="bStop" color="7" fill="6" visible="yes" active="yes"/>
<layer number="31" name="tCream" color="7" fill="4" visible="yes" active="yes"/>
<layer number="32" name="bCream" color="7" fill="5" visible="yes" active="yes"/>
<layer number="33" name="tFinish" color="6" fill="3" visible="yes" active="yes"/>
<layer number="34" name="bFinish" color="6" fill="6" visible="yes" active="yes"/>
<layer number="35" name="tGlue" color="7" fill="4" visible="yes" active="yes"/>
<layer number="36" name="bGlue" color="7" fill="5" visible="yes" active="yes"/>
<layer number="37" name="tTest" color="7" fill="1" visible="yes" active="yes"/>
<layer number="38" name="bTest" color="7" fill="1" visible="yes" active="yes"/>
<layer number="39" name="tKeepout" color="4" fill="11" visible="yes" active="yes"/>
<layer number="40" name="bKeepout" color="1" fill="11" visible="yes" active="yes"/>
<layer number="41" name="tRestrict" color="4" fill="10" visible="yes" active="yes"/>
<layer number="42" name="bRestrict" color="1" fill="10" visible="yes" active="yes"/>
<layer number="43" name="vRestrict" color="2" fill="10" visible="yes" active="yes"/>
<layer number="44" name="Drills" color="7" fill="1" visible="yes" active="yes"/>
<layer number="45" name="Holes" color="7" fill="1" visible="yes" active="yes"/>
<layer number="46" name="Milling" color="3" fill="1" visible="yes" active="yes"/>
<layer number="47" name="Measures" color="7" fill="1" visible="yes" active="yes"/>
<layer number="48" name="Document" color="7" fill="1" visible="yes" active="yes"/>
<layer number="49" name="Reference" color="7" fill="1" visible="yes" active="yes"/>
<layer number="50" name="dxf" color="7" fill="1" visible="no" active="no"/>
<layer number="51" name="tDocu" color="7" fill="1" visible="yes" active="yes"/>
<layer number="52" name="bDocu" color="7" fill="1" visible="yes" active="yes"/>
<layer number="53" name="tGND_GNDA" color="7" fill="9" visible="no" active="no"/>
<layer number="54" name="bGND_GNDA" color="1" fill="9" visible="no" active="no"/>
<layer number="56" name="wert" color="7" fill="1" visible="no" active="no"/>
<layer number="57" name="tCAD" color="7" fill="1" visible="no" active="no"/>
<layer number="59" name="tCarbon" color="7" fill="1" visible="no" active="no"/>
<layer number="60" name="bCarbon" color="7" fill="1" visible="no" active="no"/>
<layer number="90" name="Modules" color="5" fill="1" visible="no" active="no"/>
<layer number="91" name="Nets" color="2" fill="1" visible="no" active="no"/>
<layer number="92" name="Busses" color="1" fill="1" visible="no" active="no"/>
<layer number="93" name="Pins" color="2" fill="1" visible="no" active="no"/>
<layer number="94" name="Symbols" color="4" fill="1" visible="no" active="no"/>
<layer number="95" name="Names" color="7" fill="1" visible="no" active="no"/>
<layer number="96" name="Values" color="7" fill="1" visible="no" active="no"/>
<layer number="97" name="Info" color="7" fill="1" visible="no" active="no"/>
<layer number="98" name="Guide" color="6" fill="1" visible="no" active="no"/>
<layer number="99" name="SpiceOrder" color="7" fill="1" visible="no" active="no"/>
<layer number="100" name="Muster" color="7" fill="1" visible="no" active="no"/>
<layer number="101" name="Patch_Top" color="12" fill="4" visible="yes" active="yes"/>
<layer number="102" name="Vscore" color="7" fill="1" visible="yes" active="yes"/>
<layer number="103" name="tMap" color="7" fill="1" visible="yes" active="yes"/>
<layer number="104" name="Name" color="16" fill="1" visible="yes" active="yes"/>
<layer number="105" name="tPlate" color="7" fill="1" visible="yes" active="yes"/>
<layer number="106" name="bPlate" color="7" fill="1" visible="yes" active="yes"/>
<layer number="107" name="Crop" color="7" fill="1" visible="yes" active="yes"/>
<layer number="108" name="fp8" color="7" fill="1" visible="yes" active="yes"/>
<layer number="109" name="fp9" color="7" fill="1" visible="yes" active="yes"/>
<layer number="110" name="fp0" color="7" fill="1" visible="yes" active="yes"/>
<layer number="111" name="Design_Info" color="7" fill="1" visible="yes" active="yes"/>
<layer number="112" name="CC430_Restrict" color="7" fill="1" visible="yes" active="yes"/>
<layer number="113" name="IDFDebug" color="7" fill="1" visible="yes" active="yes"/>
<layer number="116" name="Patch_BOT" color="9" fill="4" visible="yes" active="yes"/>
<layer number="118" name="Rect_Pads" color="7" fill="1" visible="no" active="no"/>
<layer number="121" name="_tsilk" color="7" fill="1" visible="yes" active="yes"/>
<layer number="122" name="_bsilk" color="7" fill="1" visible="yes" active="yes"/>
<layer number="123" name="tTestmark" color="7" fill="1" visible="yes" active="yes"/>
<layer number="124" name="bTestmark" color="7" fill="1" visible="yes" active="yes"/>
<layer number="125" name="_tNames" color="7" fill="1" visible="yes" active="yes"/>
<layer number="126" name="_bNames" color="7" fill="1" visible="yes" active="yes"/>
<layer number="127" name="_tValues" color="7" fill="1" visible="yes" active="yes"/>
<layer number="128" name="_bValues" color="7" fill="1" visible="yes" active="yes"/>
<layer number="129" name="Mask" color="7" fill="1" visible="yes" active="yes"/>
<layer number="131" name="tAdjust" color="7" fill="1" visible="yes" active="yes"/>
<layer number="132" name="bAdjust" color="7" fill="1" visible="yes" active="yes"/>
<layer number="144" name="Drill_legend" color="7" fill="1" visible="yes" active="yes"/>
<layer number="150" name="Notes" color="7" fill="1" visible="yes" active="yes"/>
<layer number="151" name="HeatSink" color="7" fill="1" visible="yes" active="yes"/>
<layer number="152" name="_bDocu" color="7" fill="1" visible="yes" active="yes"/>
<layer number="153" name="FabDoc1" color="7" fill="1" visible="yes" active="yes"/>
<layer number="154" name="FabDoc2" color="7" fill="1" visible="yes" active="yes"/>
<layer number="155" name="FabDoc3" color="7" fill="1" visible="yes" active="yes"/>
<layer number="199" name="Contour" color="7" fill="1" visible="yes" active="yes"/>
<layer number="200" name="200bmp" color="1" fill="10" visible="yes" active="yes"/>
<layer number="201" name="201bmp" color="2" fill="10" visible="yes" active="yes"/>
<layer number="202" name="202bmp" color="3" fill="10" visible="yes" active="yes"/>
<layer number="203" name="203bmp" color="4" fill="10" visible="yes" active="yes"/>
<layer number="204" name="204bmp" color="5" fill="10" visible="yes" active="yes"/>
<layer number="205" name="205bmp" color="6" fill="10" visible="yes" active="yes"/>
<layer number="206" name="206bmp" color="7" fill="10" visible="yes" active="yes"/>
<layer number="207" name="207bmp" color="8" fill="10" visible="yes" active="yes"/>
<layer number="208" name="208bmp" color="9" fill="10" visible="yes" active="yes"/>
<layer number="209" name="209bmp" color="7" fill="1" visible="yes" active="yes"/>
<layer number="210" name="210bmp" color="7" fill="1" visible="yes" active="yes"/>
<layer number="211" name="211bmp" color="7" fill="1" visible="yes" active="yes"/>
<layer number="212" name="212bmp" color="7" fill="1" visible="yes" active="yes"/>
<layer number="213" name="213bmp" color="7" fill="1" visible="yes" active="yes"/>
<layer number="214" name="214bmp" color="7" fill="1" visible="yes" active="yes"/>
<layer number="215" name="215bmp" color="7" fill="1" visible="yes" active="yes"/>
<layer number="216" name="216bmp" color="7" fill="1" visible="yes" active="yes"/>
<layer number="217" name="217bmp" color="18" fill="1" visible="no" active="no"/>
<layer number="218" name="218bmp" color="19" fill="1" visible="no" active="no"/>
<layer number="219" name="219bmp" color="20" fill="1" visible="no" active="no"/>
<layer number="220" name="220bmp" color="21" fill="1" visible="no" active="no"/>
<layer number="221" name="221bmp" color="22" fill="1" visible="no" active="no"/>
<layer number="222" name="222bmp" color="23" fill="1" visible="no" active="no"/>
<layer number="223" name="223bmp" color="24" fill="1" visible="no" active="no"/>
<layer number="224" name="224bmp" color="25" fill="1" visible="no" active="no"/>
<layer number="225" name="225bmp" color="7" fill="1" visible="yes" active="yes"/>
<layer number="226" name="226bmp" color="7" fill="1" visible="yes" active="yes"/>
<layer number="227" name="227bmp" color="7" fill="1" visible="yes" active="yes"/>
<layer number="228" name="228bmp" color="7" fill="1" visible="yes" active="yes"/>
<layer number="229" name="229bmp" color="7" fill="1" visible="yes" active="yes"/>
<layer number="230" name="230bmp" color="7" fill="1" visible="yes" active="yes"/>
<layer number="231" name="231bmp" color="7" fill="1" visible="yes" active="yes"/>
<layer number="232" name="Eagle3D_PG2" color="7" fill="1" visible="no" active="no"/>
<layer number="233" name="Eagle3D_PG3" color="7" fill="1" visible="no" active="no"/>
<layer number="248" name="Housing" color="7" fill="1" visible="yes" active="yes"/>
<layer number="249" name="Edge" color="7" fill="1" visible="yes" active="yes"/>
<layer number="250" name="Descript" color="3" fill="1" visible="no" active="no"/>
<layer number="251" name="SMDround" color="12" fill="11" visible="no" active="no"/>
<layer number="254" name="cooling" color="7" fill="1" visible="yes" active="yes"/>
<layer number="255" name="routoute" color="7" fill="1" visible="yes" active="yes"/>
</layers>
<board>
<plain>
<wire x1="0.059" y1="0.056" x2="50.059" y2="0.056" width="0.1" layer="20"/>
<wire x1="50.059" y1="0.056" x2="50.059" y2="50.056" width="0.1" layer="20"/>
<wire x1="50.059" y1="50.056" x2="0.059" y2="50.056" width="0.1" layer="20"/>
<wire x1="0.059" y1="50.056" x2="0.059" y2="0.056" width="0.1" layer="20"/>
<wire x1="34.309" y1="-19.594" x2="-13.591" y2="28.306" width="0.1" layer="41"/>
<wire x1="69.209" y1="16.156" x2="23.009" y2="62.406" width="0.1" layer="42"/>
<wire x1="-1" y1="15" x2="-1" y2="14.95" width="1.016" layer="46"/>
<wire x1="-1" y1="14.95" x2="3" y2="10.9" width="1.016" layer="46"/>
<wire x1="4.85" y1="9.1" x2="8.2" y2="5.7" width="1.016" layer="46"/>
<wire x1="10.15" y1="3.75" x2="14.3" y2="-0.4" width="1.016" layer="46"/>
<wire x1="35.45" y1="-0.65" x2="35.5" y2="-0.65" width="1.016" layer="46"/>
<wire x1="35.5" y1="-0.65" x2="39.55" y2="3.35" width="1.016" layer="46"/>
<wire x1="41.35" y1="5.2" x2="44.75" y2="8.55" width="1.016" layer="46"/>
<wire x1="46.7" y1="10.5" x2="50.85" y2="14.65" width="1.016" layer="46"/>
<wire x1="-1.05" y1="35.25" x2="-1" y2="35.25" width="1.016" layer="46"/>
<wire x1="-1" y1="35.25" x2="3.05" y2="39.25" width="1.016" layer="46"/>
<wire x1="4.85" y1="41.1" x2="8.25" y2="44.45" width="1.016" layer="46"/>
<wire x1="10.2" y1="46.4" x2="14.35" y2="50.55" width="1.016" layer="46"/>
<wire x1="35.8" y1="50.5" x2="35.8" y2="50.45" width="1.016" layer="46"/>
<wire x1="35.8" y1="50.45" x2="39.8" y2="46.4" width="1.016" layer="46"/>
<wire x1="41.65" y1="44.6" x2="45" y2="41.2" width="1.016" layer="46"/>
<wire x1="46.95" y1="39.25" x2="51.1" y2="35.1" width="1.016" layer="46"/>
<hole x="3.007" y="47.014" drill="3.3"/>
<hole x="2.507" y="3.014" drill="3.3"/>
<hole x="46.507" y="3.014" drill="3.3"/>
<hole x="47.007" y="47.014" drill="3.3"/>
<wire x1="34.309" y1="-19.594" x2="-13.591" y2="28.306" width="0.1" layer="42"/>
<wire x1="-15.741" y1="19.656" x2="32.159" y2="67.556" width="0.1" layer="41"/>
<wire x1="-15.741" y1="19.656" x2="32.159" y2="67.556" width="0.1" layer="42"/>
<wire x1="68.709" y1="16.656" x2="22.509" y2="62.906" width="0.1" layer="41"/>
<wire x1="19.559" y1="-15.844" x2="67.459" y2="32.056" width="0.1" layer="41"/>
<wire x1="18.559" y1="-16.844" x2="66.459" y2="31.056" width="0.1" layer="42"/>
<text x="29" y="6" size="0.8128" layer="1">VBAT</text>
<text x="29" y="6" size="0.8128" layer="25">VBAT</text>
<text x="29" y="3.5" size="0.8128" layer="25">GND</text>
<text x="9.103553125" y="14.44644375" size="0.8128" layer="25" rot="R45">SCL</text>
<text x="10.503553125" y="12.94644375" size="0.8128" layer="25" rot="R45">SDA</text>
<text x="11.953553125" y="11.59644375" size="0.8128" layer="25" rot="R45">VCC</text>
<text x="13.403553125" y="10.24644375" size="0.8128" layer="25" rot="R45">SCL</text>
<text x="44.52530625" y="23.46464375" size="0.8128" layer="25" rot="R180">SCL</text>
<text x="44.2424625" y="27.54038125" size="0.8128" layer="25" rot="R180">SDA</text>
<text x="44.378859375" y="25.606065625" size="0.8128" layer="25" rot="R180">VCC</text>
<text x="44.2474875" y="29.611090625" size="0.8128" layer="25" rot="R180">SCL</text>
</plain>
<libraries>
<library name="adafruit">
<packages>
<package name="C0805">
<description>&lt;b&gt;CAPACITOR&lt;/b&gt;&lt;p&gt;
chip</description>
<wire x1="-1.973" y1="0.983" x2="1.973" y2="0.983" width="0.0508" layer="39"/>
<wire x1="1.973" y1="-0.983" x2="-1.973" y2="-0.983" width="0.0508" layer="39"/>
<wire x1="-1.973" y1="-0.983" x2="-1.973" y2="0.983" width="0.0508" layer="39"/>
<wire x1="-0.381" y1="0.66" x2="0.381" y2="0.66" width="0.1016" layer="51"/>
<wire x1="-0.356" y1="-0.66" x2="0.381" y2="-0.66" width="0.1016" layer="51"/>
<wire x1="1.973" y1="0.983" x2="1.973" y2="-0.983" width="0.0508" layer="39"/>
<smd name="1" x="-0.85" y="0" dx="1.3" dy="1.5" layer="1"/>
<smd name="2" x="0.85" y="0" dx="1.3" dy="1.5" layer="1"/>
<text x="-0.889" y="1.016" size="1.27" layer="25">&gt;NAME</text>
<text x="-0.889" y="-2.286" size="1.27" layer="27">&gt;VALUE</text>
<rectangle x1="-1.0922" y1="-0.7239" x2="-0.3421" y2="0.7262" layer="51"/>
<rectangle x1="0.3556" y1="-0.7239" x2="1.1057" y2="0.7262" layer="51"/>
<rectangle x1="-0.1001" y1="-0.4001" x2="0.1001" y2="0.4001" layer="35"/>
</package>
<package name="M0805">
<description>&lt;b&gt;RESISTOR&lt;/b&gt;&lt;p&gt;
MELF 0.10 W</description>
<wire x1="-1.973" y1="0.983" x2="1.973" y2="0.983" width="0.0508" layer="39"/>
<wire x1="1.973" y1="-0.983" x2="-1.973" y2="-0.983" width="0.0508" layer="39"/>
<wire x1="-1.973" y1="-0.983" x2="-1.973" y2="0.983" width="0.0508" layer="39"/>
<wire x1="1.973" y1="0.983" x2="1.973" y2="-0.983" width="0.0508" layer="39"/>
<wire x1="0.7112" y1="0.635" x2="-0.7112" y2="0.635" width="0.1524" layer="51"/>
<wire x1="0.7112" y1="-0.635" x2="-0.7112" y2="-0.635" width="0.1524" layer="51"/>
<smd name="1" x="-0.95" y="0" dx="1.3" dy="1.6" layer="1"/>
<smd name="2" x="0.95" y="0" dx="1.3" dy="1.6" layer="1"/>
<text x="-1.016" y="1.016" size="1.27" layer="25">&gt;NAME</text>
<text x="-1.016" y="-2.286" size="1.27" layer="27">&gt;VALUE</text>
<rectangle x1="-1.0414" y1="-0.7112" x2="-0.6858" y2="0.7112" layer="51"/>
<rectangle x1="0.6858" y1="-0.7112" x2="1.0414" y2="0.7112" layer="51"/>
<rectangle x1="-0.1999" y1="-0.5999" x2="0.1999" y2="0.5999" layer="35"/>
</package>
<package name="CHIPLED_0805">
<description>&lt;b&gt;CHIPLED&lt;/b&gt;&lt;p&gt;
Source: http://www.osram.convergy.de/ ... LG_R971.pdf</description>
<wire x1="-0.35" y1="1" x2="0.35" y2="1" width="0.1016" layer="51" curve="180" cap="flat"/>
<wire x1="-0.35" y1="-1" x2="0.35" y2="-1" width="0.1016" layer="51" curve="-180" cap="flat"/>
<wire x1="0.575" y1="0.525" x2="0.575" y2="-0.525" width="0.1016" layer="51"/>
<wire x1="-0.575" y1="-0.5" x2="-0.575" y2="0.925" width="0.1016" layer="51"/>
<circle x="-0.45" y="0.85" radius="0.103" width="0.1016" layer="51"/>
<smd name="C" x="0" y="1.05" dx="1.2" dy="1.2" layer="1"/>
<smd name="A" x="0" y="-1.05" dx="1.2" dy="1.2" layer="1"/>
<text x="-1.27" y="-1.27" size="1.27" layer="25" rot="R90">&gt;NAME</text>
<text x="2.54" y="-1.27" size="1.27" layer="27" rot="R90">&gt;VALUE</text>
<rectangle x1="0.3" y1="0.5" x2="0.625" y2="1" layer="51"/>
<rectangle x1="-0.325" y1="0.5" x2="-0.175" y2="0.75" layer="51"/>
<rectangle x1="0.175" y1="0.5" x2="0.325" y2="0.75" layer="51"/>
<rectangle x1="-0.2" y1="0.5" x2="0.2" y2="0.675" layer="51"/>
<rectangle x1="0.3" y1="-1" x2="0.625" y2="-0.5" layer="51"/>
<rectangle x1="-0.625" y1="-1" x2="-0.3" y2="-0.5" layer="51"/>
<rectangle x1="0.175" y1="-0.75" x2="0.325" y2="-0.5" layer="51"/>
<rectangle x1="-0.325" y1="-0.75" x2="-0.175" y2="-0.5" layer="51"/>
<rectangle x1="-0.2" y1="-0.675" x2="0.2" y2="-0.5" layer="51"/>
<rectangle x1="-0.1" y1="0" x2="0.1" y2="0.2" layer="21"/>
<rectangle x1="-0.6" y1="0.5" x2="-0.3" y2="0.8" layer="51"/>
<rectangle x1="-0.625" y1="0.925" x2="-0.4" y2="1" layer="51"/>
</package>
</packages>
</library>
<library name="SparkFun-DiscreteSemi">
<description>&lt;h3&gt;SparkFun Electronics' preferred foot prints&lt;/h3&gt;
In this library you'll find discrete semiconductors- transistors, diodes, TRIACs, optoisolators, etc.&lt;br&gt;&lt;br&gt;
We've spent an enormous amount of time creating and checking these footprints and parts, but it is the end user's responsibility to ensure correctness and suitablity for a given componet or application. If you enjoy using this library, please buy one of our products at www.sparkfun.com.
&lt;br&gt;&lt;br&gt;
&lt;b&gt;Licensing:&lt;/b&gt; Creative Commons ShareAlike 4.0 International - https://creativecommons.org/licenses/by-sa/4.0/ 
&lt;br&gt;&lt;br&gt;
You are welcome to use this library for commercial purposes. For attribution, we ask that when you begin to sell your device using our footprint, you email us with a link to the product being sold. We want bragging rights that we helped (in a very small part) to create your 8th world wonder. We would like the opportunity to feature your device on our homepage.</description>
<packages>
<package name="SMA-DIODE">
<description>&lt;B&gt;Diode&lt;/B&gt;&lt;p&gt;
Basic SMA packaged diode. Good for reverse polarization protection. Common part #: MBRA140</description>
<wire x1="-2.3" y1="1" x2="-2.3" y2="1.45" width="0.2032" layer="21"/>
<wire x1="-2.3" y1="1.45" x2="2.3" y2="1.45" width="0.2032" layer="21"/>
<wire x1="2.3" y1="1.45" x2="2.3" y2="1" width="0.2032" layer="21"/>
<wire x1="2.3" y1="-1" x2="2.3" y2="-1.45" width="0.2032" layer="21"/>
<wire x1="2.3" y1="-1.45" x2="-2.3" y2="-1.45" width="0.2032" layer="21"/>
<wire x1="-2.3" y1="-1.45" x2="-2.3" y2="-1" width="0.2032" layer="21"/>
<wire x1="1" y1="1" x2="1" y2="-1" width="0.2032" layer="21"/>
<smd name="A" x="-2.15" y="0" dx="1.27" dy="1.47" layer="1" rot="R180"/>
<smd name="C" x="2.15" y="0" dx="1.27" dy="1.47" layer="1"/>
<text x="-2.286" y="1.651" size="0.4064" layer="25">&gt;NAME</text>
<text x="0.254" y="1.651" size="0.4064" layer="27">&gt;VALUE</text>
</package>
</packages>
</library>
<library name="i2c">
<packages>
<package name="I2C_CONNECTOR">
<pad name="1" x="-3" y="0" drill="0.8" shape="square"/>
<pad name="2" x="-1" y="0" drill="0.8"/>
<pad name="3" x="1" y="0" drill="0.8"/>
<pad name="4" x="3" y="0" drill="0.8"/>
<wire x1="5" y1="2.2" x2="5" y2="-2.2" width="0.127" layer="21"/>
<wire x1="5" y1="-2.2" x2="-5" y2="-2.2" width="0.127" layer="21"/>
<wire x1="-5" y1="-2.2" x2="-5" y2="2.2" width="0.127" layer="21"/>
<wire x1="-5" y1="2.2" x2="5" y2="2.2" width="0.127" layer="21"/>
<text x="-5.25" y="2.45" size="1.77" layer="25">&gt;Name</text>
<text x="-5.15" y="-4.3" size="1.77" layer="25">&gt;Value</text>
</package>
</packages>
</library>
<library name="SparkFun-Passives">
<description>&lt;h3&gt;SparkFun Electronics' preferred foot prints&lt;/h3&gt;
In this library you'll find resistors, capacitors, inductors, test points, jumper pads, etc.&lt;br&gt;&lt;br&gt;
We've spent an enormous amount of time creating and checking these footprints and parts, but it is the end user's responsibility to ensure correctness and suitablity for a given componet or application. If you enjoy using this library, please buy one of our products at www.sparkfun.com.
&lt;br&gt;&lt;br&gt;
&lt;b&gt;Licensing:&lt;/b&gt; CC v3.0 Share-Alike You are welcome to use this library for commercial purposes. For attribution, we ask that when you begin to sell your device using our footprint, you email us with a link to the product being sold. We want bragging rights that we helped (in a very small part) to create your 8th world wonder. We would like the opportunity to feature your device on our homepage.</description>
<packages>
<package name="PAD.03X.05">
<smd name="P$1" x="0" y="0" dx="1.27" dy="1.27" layer="1" roundness="100" cream="no"/>
</package>
</packages>
</library>
<library name="con-lstb">
<description>&lt;b&gt;Pin Headers&lt;/b&gt;&lt;p&gt;
Naming:&lt;p&gt;
MA = male&lt;p&gt;
# contacts - # rows&lt;p&gt;
W = angled&lt;p&gt;
&lt;author&gt;Created by librarian@cadsoft.de&lt;/author&gt;</description>
<packages>
<package name="MA03-2">
<description>&lt;b&gt;PIN HEADER&lt;/b&gt;</description>
<wire x1="-3.175" y1="2.54" x2="-1.905" y2="2.54" width="0.1524" layer="21"/>
<wire x1="-1.905" y1="2.54" x2="-1.27" y2="1.905" width="0.1524" layer="21"/>
<wire x1="-1.27" y1="1.905" x2="-0.635" y2="2.54" width="0.1524" layer="21"/>
<wire x1="-0.635" y1="2.54" x2="0.635" y2="2.54" width="0.1524" layer="21"/>
<wire x1="0.635" y1="2.54" x2="1.27" y2="1.905" width="0.1524" layer="21"/>
<wire x1="-3.175" y1="2.54" x2="-3.81" y2="1.905" width="0.1524" layer="21"/>
<wire x1="1.27" y1="1.905" x2="1.905" y2="2.54" width="0.1524" layer="21"/>
<wire x1="1.905" y1="2.54" x2="3.175" y2="2.54" width="0.1524" layer="21"/>
<wire x1="3.175" y1="2.54" x2="3.81" y2="1.905" width="0.1524" layer="21"/>
<wire x1="3.81" y1="1.905" x2="3.81" y2="-1.905" width="0.1524" layer="21"/>
<wire x1="-1.27" y1="-1.905" x2="-1.905" y2="-2.54" width="0.1524" layer="21"/>
<wire x1="1.27" y1="-1.905" x2="0.635" y2="-2.54" width="0.1524" layer="21"/>
<wire x1="0.635" y1="-2.54" x2="-0.635" y2="-2.54" width="0.1524" layer="21"/>
<wire x1="-0.635" y1="-2.54" x2="-1.27" y2="-1.905" width="0.1524" layer="21"/>
<wire x1="-3.81" y1="1.905" x2="-3.81" y2="-1.905" width="0.1524" layer="21"/>
<wire x1="-3.81" y1="-1.905" x2="-3.175" y2="-2.54" width="0.1524" layer="21"/>
<wire x1="-1.905" y1="-2.54" x2="-3.175" y2="-2.54" width="0.1524" layer="21"/>
<wire x1="3.81" y1="-1.905" x2="3.175" y2="-2.54" width="0.1524" layer="21"/>
<wire x1="3.175" y1="-2.54" x2="1.905" y2="-2.54" width="0.1524" layer="21"/>
<wire x1="1.905" y1="-2.54" x2="1.27" y2="-1.905" width="0.1524" layer="21"/>
<pad name="1" x="-2.54" y="-1.27" drill="1.016"/>
<pad name="3" x="0" y="-1.27" drill="1.016" shape="octagon"/>
<pad name="5" x="2.54" y="-1.27" drill="1.016" shape="octagon"/>
<pad name="2" x="-2.54" y="1.27" drill="1.016" shape="octagon"/>
<pad name="4" x="0" y="1.27" drill="1.016" shape="octagon"/>
<pad name="6" x="2.54" y="1.27" drill="1.016" shape="octagon"/>
<text x="-3.175" y="-4.191" size="1.27" layer="21" ratio="10">1</text>
<text x="-3.81" y="2.921" size="1.27" layer="25" ratio="10">&gt;NAME</text>
<text x="4.064" y="0.635" size="1.27" layer="21" ratio="10">6</text>
<text x="-1.27" y="-4.191" size="1.27" layer="27" ratio="10">&gt;VALUE</text>
<rectangle x1="-0.254" y1="-1.524" x2="0.254" y2="-1.016" layer="51"/>
<rectangle x1="-2.794" y1="-1.524" x2="-2.286" y2="-1.016" layer="51"/>
<rectangle x1="2.286" y1="-1.524" x2="2.794" y2="-1.016" layer="51"/>
<rectangle x1="-2.794" y1="1.016" x2="-2.286" y2="1.524" layer="51"/>
<rectangle x1="-0.254" y1="1.016" x2="0.254" y2="1.524" layer="51"/>
<rectangle x1="2.286" y1="1.016" x2="2.794" y2="1.524" layer="51"/>
</package>
</packages>
</library>
<library name="SparkFun-PowerIC">
<description>&lt;h3&gt;SparkFun Electronics' preferred foot prints&lt;/h3&gt;
In this library you'll find drivers, regulators, and amplifiers.&lt;br&gt;&lt;br&gt;
We've spent an enormous amount of time creating and checking these footprints and parts, but it is the end user's responsibility to ensure correctness and suitablity for a given componet or application. If you enjoy using this library, please buy one of our products at www.sparkfun.com.
&lt;br&gt;&lt;br&gt;
&lt;b&gt;Licensing:&lt;/b&gt; CC v3.0 Share-Alike You are welcome to use this library for commercial purposes. For attribution, we ask that when you begin to sell your device using our footprint, you email us with a link to the product being sold. We want bragging rights that we helped (in a very small part) to create your 8th world wonder. We would like the opportunity to feature your device on our homepage.</description>
<packages>
<package name="TDFN-8">
<description>TDFN - 8pin, 2mmx3mm</description>
<wire x1="-1.5" y1="1" x2="-1.5" y2="-1" width="0.127" layer="51"/>
<wire x1="-1.5" y1="-1" x2="1.5" y2="-1" width="0.127" layer="51"/>
<wire x1="1.5" y1="-1" x2="1.5" y2="1" width="0.127" layer="51"/>
<wire x1="1.5" y1="1" x2="-1.5" y2="1" width="0.127" layer="51"/>
<wire x1="-1.5" y1="1.05" x2="-1.45" y2="1.05" width="0.127" layer="21"/>
<wire x1="-1.45" y1="1.05" x2="1.5" y2="1.05" width="0.2032" layer="21"/>
<wire x1="-1.5" y1="-1.05" x2="1.5" y2="-1.05" width="0.2032" layer="21"/>
<wire x1="-1.5" y1="1.05" x2="-1.45" y2="1.05" width="0.2032" layer="21" curve="-345.749967"/>
<smd name="EP" x="0" y="0" dx="1.73" dy="1.88" layer="1" stop="no" cream="no"/>
<smd name="1" x="-1.4" y="0.75" dx="0.8" dy="0.3" layer="1" stop="no" cream="no"/>
<smd name="2" x="-1.4" y="0.25" dx="0.8" dy="0.3" layer="1" stop="no" cream="no"/>
<smd name="4" x="-1.4" y="-0.75" dx="0.8" dy="0.3" layer="1" stop="no" cream="no"/>
<smd name="3" x="-1.4" y="-0.25" dx="0.8" dy="0.3" layer="1" stop="no" cream="no"/>
<smd name="8" x="1.4" y="0.75" dx="0.8" dy="0.3" layer="1" stop="no" cream="no"/>
<smd name="7" x="1.4" y="0.25" dx="0.8" dy="0.3" layer="1" stop="no" cream="no"/>
<smd name="5" x="1.4" y="-0.75" dx="0.8" dy="0.3" layer="1" stop="no" cream="no"/>
<smd name="6" x="1.4" y="-0.25" dx="0.8" dy="0.3" layer="1" stop="no" cream="no"/>
<text x="-2" y="1" size="0.4064" layer="25">&gt;NAME</text>
<text x="-2" y="-1.4" size="0.4064" layer="27">&gt;VALUE</text>
<rectangle x1="-1.8" y1="0.6" x2="-1" y2="0.9" layer="29"/>
<rectangle x1="-1.8" y1="0.6" x2="-1" y2="0.9" layer="29"/>
<rectangle x1="-1.8" y1="-0.4" x2="-1" y2="-0.1" layer="29"/>
<rectangle x1="-1.8" y1="0.1" x2="-1" y2="0.4" layer="29"/>
<rectangle x1="-1.8" y1="-0.9" x2="-1" y2="-0.6" layer="29"/>
<rectangle x1="1" y1="0.6" x2="1.8" y2="0.9" layer="29"/>
<rectangle x1="1" y1="0.1" x2="1.8" y2="0.4" layer="29"/>
<rectangle x1="1" y1="-0.4" x2="1.8" y2="-0.1" layer="29"/>
<rectangle x1="1" y1="-0.9" x2="1.8" y2="-0.6" layer="29"/>
<rectangle x1="-0.865" y1="-0.94" x2="0.865" y2="0.94" layer="29"/>
<rectangle x1="-0.3302" y1="-0.3302" x2="0.3302" y2="0.3302" layer="31"/>
<rectangle x1="-1.775459375" y1="0.61721875" x2="-1.02108125" y2="0.88138125" layer="31"/>
<rectangle x1="-1.777996875" y1="0.1143" x2="-1.023621875" y2="0.3784625" layer="31"/>
<rectangle x1="-1.777996875" y1="-0.381" x2="-1.023621875" y2="-0.1168375" layer="31"/>
<rectangle x1="-1.777996875" y1="-0.88391875" x2="-1.023621875" y2="-0.61975625" layer="31"/>
<rectangle x1="1.021084375" y1="0.61721875" x2="1.775459375" y2="0.88138125" layer="31"/>
<rectangle x1="1.023625" y1="0.119378125" x2="1.778" y2="0.383540625" layer="31"/>
<rectangle x1="1.023625" y1="-0.381003125" x2="1.778" y2="-0.116840625" layer="31"/>
<rectangle x1="1.026165625" y1="-0.881384375" x2="1.780540625" y2="-0.617221875" layer="31"/>
</package>
<package name="SOT23-5">
<description>&lt;b&gt;Small Outline Transistor&lt;/b&gt;</description>
<wire x1="1.27" y1="0.4294" x2="1.27" y2="-0.4294" width="0.2032" layer="21"/>
<wire x1="1.4" y1="-0.8" x2="-1.4" y2="-0.8" width="0.1524" layer="51"/>
<wire x1="-1.27" y1="-0.4294" x2="-1.27" y2="0.4294" width="0.2032" layer="21"/>
<wire x1="-1.4" y1="0.8" x2="1.4" y2="0.8" width="0.1524" layer="51"/>
<wire x1="-0.2684" y1="0.7088" x2="0.2684" y2="0.7088" width="0.2032" layer="21"/>
<wire x1="1.4" y1="0.8" x2="1.4" y2="-0.8" width="0.1524" layer="51"/>
<wire x1="-1.4" y1="0.8" x2="-1.4" y2="-0.8" width="0.1524" layer="51"/>
<rectangle x1="-1.2" y1="-1.5" x2="-0.7" y2="-0.85" layer="51"/>
<rectangle x1="-0.25" y1="-1.5" x2="0.25" y2="-0.85" layer="51"/>
<rectangle x1="0.7" y1="-1.5" x2="1.2" y2="-0.85" layer="51"/>
<rectangle x1="0.7" y1="0.85" x2="1.2" y2="1.5" layer="51"/>
<rectangle x1="-1.2" y1="0.85" x2="-0.7" y2="1.5" layer="51"/>
<smd name="1" x="-0.95" y="-1.3001" dx="0.55" dy="1.2" layer="1"/>
<smd name="2" x="0" y="-1.3001" dx="0.55" dy="1.2" layer="1"/>
<smd name="3" x="0.95" y="-1.3001" dx="0.55" dy="1.2" layer="1"/>
<smd name="4" x="0.95" y="1.3001" dx="0.55" dy="1.2" layer="1"/>
<smd name="5" x="-0.95" y="1.3001" dx="0.55" dy="1.2" layer="1"/>
<text x="-0.889" y="2.159" size="0.4064" layer="25">&gt;NAME</text>
<text x="-0.9525" y="-0.1905" size="0.4064" layer="27">&gt;VALUE</text>
<circle x="-1.6002" y="-1.016" radius="0.127" width="0" layer="21"/>
</package>
</packages>
</library>
<library name="FCI_MicroUsb_Connector">
<packages>
<package name="USB-MICROB">
<description>Micro USB Package</description>
<wire x1="-3.4" y1="-2.15" x2="-3" y2="-2.15" width="0.127" layer="51"/>
<wire x1="3" y1="-2.15" x2="3.4" y2="-2.15" width="0.127" layer="51"/>
<wire x1="-3.4" y1="-2.15" x2="-3.4" y2="-1.45" width="0.127" layer="51"/>
<wire x1="-3.4" y1="-1.45" x2="-3.4" y2="2.85" width="0.127" layer="51"/>
<wire x1="3.4" y1="2.85" x2="2.2" y2="2.85" width="0.127" layer="51"/>
<wire x1="3.4" y1="2.85" x2="3.4" y2="-1.45" width="0.127" layer="51"/>
<wire x1="3.4" y1="-1.45" x2="3.4" y2="-2.15" width="0.127" layer="51"/>
<wire x1="-3.4" y1="-1.45" x2="3.4" y2="-1.45" width="0.127" layer="51"/>
<wire x1="-3.4" y1="1.25" x2="-3.4" y2="2.85" width="0.2032" layer="21"/>
<wire x1="-3.4" y1="2.85" x2="-2.2" y2="2.85" width="0.2032" layer="21"/>
<wire x1="3.4" y1="2.85" x2="2.2" y2="2.85" width="0.2032" layer="21"/>
<wire x1="3.4" y1="1.25" x2="3.4" y2="2.85" width="0.2032" layer="21"/>
<wire x1="-3.4" y1="-1.45" x2="3.4" y2="-1.45" width="0.2032" layer="21"/>
<wire x1="-2.2" y1="1.45" x2="2.2" y2="1.45" width="0.127" layer="51"/>
<wire x1="2.2" y1="1.45" x2="2.2" y2="2.85" width="0.127" layer="51"/>
<wire x1="-2.2" y1="1.45" x2="-2.2" y2="2.85" width="0.127" layer="51"/>
<wire x1="-3.4" y1="2.85" x2="-2.2" y2="2.85" width="0.127" layer="51"/>
<wire x1="-2.2" y1="2.85" x2="-2.2" y2="1.45" width="0.2032" layer="21"/>
<wire x1="-2.2" y1="1.45" x2="2.2" y2="1.45" width="0.2032" layer="21"/>
<wire x1="2.2" y1="1.45" x2="2.2" y2="2.85" width="0.2032" layer="21"/>
<wire x1="-3.4" y1="-2.15" x2="-4" y2="-2.75" width="0.2032" layer="51"/>
<wire x1="3.4" y1="-2.15" x2="4" y2="-2.75" width="0.2032" layer="51"/>
<wire x1="-3" y1="-2.15" x2="-3" y2="-2.55" width="0.127" layer="51"/>
<wire x1="-2.8" y1="-2.8" x2="2.75" y2="-2.8" width="0.127" layer="51"/>
<wire x1="3" y1="-2.6" x2="3" y2="-2.15" width="0.127" layer="51"/>
<wire x1="-3" y1="-2.55" x2="-2.8" y2="-2.8" width="0.127" layer="51" curve="84.547378"/>
<wire x1="2.75" y1="-2.8" x2="3" y2="-2.6" width="0.127" layer="51" curve="84.547378"/>
<smd name="VBUS" x="-1.3" y="2.65" dx="1.4" dy="0.45" layer="1" rot="R90"/>
<smd name="GND" x="1.3" y="2.65" dx="1.4" dy="0.45" layer="1" rot="R90"/>
<smd name="D-" x="-0.65" y="2.65" dx="1.4" dy="0.45" layer="1" rot="R90"/>
<smd name="D+" x="0" y="2.65" dx="1.4" dy="0.45" layer="1" rot="R90"/>
<smd name="ID" x="0.65" y="2.65" dx="1.4" dy="0.45" layer="1" rot="R90"/>
<smd name="MT1" x="-4" y="0" dx="1.8" dy="1.9" layer="1"/>
<smd name="MT2" x="4" y="0" dx="1.8" dy="1.9" layer="1"/>
<text x="-1.6" y="-0.35" size="0.762" layer="25">&gt;NAME</text>
<text x="-1.905" y="-3.175" size="0.762" layer="27">&gt;VALUE</text>
<smd name="P$1" x="-1.27" y="0" dx="1.9" dy="1.9" layer="1"/>
<smd name="P$2" x="1.27" y="0" dx="1.9" dy="1.9" layer="1"/>
<text x="-1.65" y="2.2" size="0.254" layer="25" rot="R90">VBUS</text>
<text x="1.85" y="2.1" size="0.254" layer="25" rot="R90">GND</text>
</package>
</packages>
</library>
</libraries>
<attributes>
</attributes>
<variantdefs>
</variantdefs>
<classes>
<class number="0" name="default" width="0.3048" drill="0.508">
<clearance class="0" value="0.254"/>
</class>
</classes>
<designrules name="default">
<description language="de">&lt;b&gt;EAGLE Design Rules&lt;/b&gt;
&lt;p&gt;
Die Standard-Design-Rules sind so gewählt, dass sie für 
die meisten Anwendungen passen. Sollte ihre Platine 
besondere Anforderungen haben, treffen Sie die erforderlichen
Einstellungen hier und speichern die Design Rules unter 
einem neuen Namen ab.</description>
<description language="en">&lt;b&gt;EAGLE Design Rules&lt;/b&gt;
&lt;p&gt;
The default Design Rules have been set to cover
a wide range of applications. Your particular design
may have different requirements, so please make the
necessary adjustments and save your customized
design rules under a new name.</description>
<param name="layerSetup" value="(1*16)"/>
<param name="mtCopper" value="0.035mm 0.035mm 0.035mm 0.035mm 0.035mm 0.035mm 0.035mm 0.035mm 0.035mm 0.035mm 0.035mm 0.035mm 0.035mm 0.035mm 0.035mm 0.035mm"/>
<param name="mtIsolate" value="1.5mm 0.15mm 0.2mm 0.15mm 0.2mm 0.15mm 0.2mm 0.15mm 0.2mm 0.15mm 0.2mm 0.15mm 0.2mm 0.15mm 0.2mm"/>
<param name="mdWireWire" value="8mil"/>
<param name="mdWirePad" value="8mil"/>
<param name="mdWireVia" value="8mil"/>
<param name="mdPadPad" value="8mil"/>
<param name="mdPadVia" value="8mil"/>
<param name="mdViaVia" value="8mil"/>
<param name="mdSmdPad" value="8mil"/>
<param name="mdSmdVia" value="8mil"/>
<param name="mdSmdSmd" value="8mil"/>
<param name="mdViaViaSameLayer" value="8mil"/>
<param name="mnLayersViaInSmd" value="2"/>
<param name="mdCopperDimension" value="40mil"/>
<param name="mdDrill" value="8mil"/>
<param name="mdSmdStop" value="0mil"/>
<param name="msWidth" value="10mil"/>
<param name="msDrill" value="24mil"/>
<param name="msMicroVia" value="9.99mm"/>
<param name="msBlindViaRatio" value="0.5"/>
<param name="rvPadTop" value="0.25"/>
<param name="rvPadInner" value="0.25"/>
<param name="rvPadBottom" value="0.25"/>
<param name="rvViaOuter" value="0.25"/>
<param name="rvViaInner" value="0.25"/>
<param name="rvMicroViaOuter" value="0.25"/>
<param name="rvMicroViaInner" value="0.25"/>
<param name="rlMinPadTop" value="10mil"/>
<param name="rlMaxPadTop" value="20mil"/>
<param name="rlMinPadInner" value="10mil"/>
<param name="rlMaxPadInner" value="20mil"/>
<param name="rlMinPadBottom" value="10mil"/>
<param name="rlMaxPadBottom" value="20mil"/>
<param name="rlMinViaOuter" value="8mil"/>
<param name="rlMaxViaOuter" value="20mil"/>
<param name="rlMinViaInner" value="8mil"/>
<param name="rlMaxViaInner" value="20mil"/>
<param name="rlMinMicroViaOuter" value="4mil"/>
<param name="rlMaxMicroViaOuter" value="20mil"/>
<param name="rlMinMicroViaInner" value="4mil"/>
<param name="rlMaxMicroViaInner" value="20mil"/>
<param name="psTop" value="-1"/>
<param name="psBottom" value="-1"/>
<param name="psFirst" value="-1"/>
<param name="psElongationLong" value="100"/>
<param name="psElongationOffset" value="100"/>
<param name="mvStopFrame" value="1"/>
<param name="mvCreamFrame" value="0"/>
<param name="mlMinStopFrame" value="4mil"/>
<param name="mlMaxStopFrame" value="4mil"/>
<param name="mlMinCreamFrame" value="0mil"/>
<param name="mlMaxCreamFrame" value="0mil"/>
<param name="mlViaStopLimit" value="0mil"/>
<param name="srRoundness" value="0"/>
<param name="srMinRoundness" value="0mil"/>
<param name="srMaxRoundness" value="0mil"/>
<param name="slThermalIsolate" value="10mil"/>
<param name="slThermalsForVias" value="0"/>
<param name="dpMaxLengthDifference" value="10mm"/>
<param name="dpGapFactor" value="2.5"/>
<param name="checkGrid" value="0"/>
<param name="checkAngle" value="0"/>
<param name="checkFont" value="1"/>
<param name="checkRestrict" value="1"/>
<param name="useDiameter" value="13"/>
<param name="maxErrors" value="50"/>
</designrules>
<autorouter>
<pass name="Default">
<param name="RoutingGrid" value="50mil"/>
<param name="AutoGrid" value="1"/>
<param name="Efforts" value="0"/>
<param name="TopRouterVariant" value="1"/>
<param name="tpViaShape" value="round"/>
<param name="PrefDir.1" value="a"/>
<param name="PrefDir.2" value="0"/>
<param name="PrefDir.3" value="0"/>
<param name="PrefDir.4" value="0"/>
<param name="PrefDir.5" value="0"/>
<param name="PrefDir.6" value="0"/>
<param name="PrefDir.7" value="0"/>
<param name="PrefDir.8" value="0"/>
<param name="PrefDir.9" value="0"/>
<param name="PrefDir.10" value="0"/>
<param name="PrefDir.11" value="0"/>
<param name="PrefDir.12" value="0"/>
<param name="PrefDir.13" value="0"/>
<param name="PrefDir.14" value="0"/>
<param name="PrefDir.15" value="0"/>
<param name="PrefDir.16" value="a"/>
<param name="cfVia" value="8"/>
<param name="cfNonPref" value="5"/>
<param name="cfChangeDir" value="2"/>
<param name="cfOrthStep" value="2"/>
<param name="cfDiagStep" value="3"/>
<param name="cfExtdStep" value="0"/>
<param name="cfBonusStep" value="1"/>
<param name="cfMalusStep" value="1"/>
<param name="cfPadImpact" value="4"/>
<param name="cfSmdImpact" value="4"/>
<param name="cfBusImpact" value="0"/>
<param name="cfHugging" value="3"/>
<param name="cfAvoid" value="4"/>
<param name="cfPolygon" value="10"/>
<param name="cfBase.1" value="0"/>
<param name="cfBase.2" value="1"/>
<param name="cfBase.3" value="1"/>
<param name="cfBase.4" value="1"/>
<param name="cfBase.5" value="1"/>
<param name="cfBase.6" value="1"/>
<param name="cfBase.7" value="1"/>
<param name="cfBase.8" value="1"/>
<param name="cfBase.9" value="1"/>
<param name="cfBase.10" value="1"/>
<param name="cfBase.11" value="1"/>
<param name="cfBase.12" value="1"/>
<param name="cfBase.13" value="1"/>
<param name="cfBase.14" value="1"/>
<param name="cfBase.15" value="1"/>
<param name="cfBase.16" value="0"/>
<param name="mnVias" value="20"/>
<param name="mnSegments" value="9999"/>
<param name="mnExtdSteps" value="9999"/>
<param name="mnRipupLevel" value="10"/>
<param name="mnRipupSteps" value="100"/>
<param name="mnRipupTotal" value="100"/>
</pass>
<pass name="Follow-me" refer="Default" active="yes">
</pass>
<pass name="Busses" refer="Default" active="yes">
<param name="cfNonPref" value="4"/>
<param name="cfBusImpact" value="4"/>
<param name="cfHugging" value="0"/>
<param name="mnVias" value="0"/>
</pass>
<pass name="Route" refer="Default" active="yes">
</pass>
<pass name="Optimize1" refer="Default" active="yes">
<param name="cfVia" value="99"/>
<param name="cfExtdStep" value="10"/>
<param name="cfHugging" value="1"/>
<param name="mnExtdSteps" value="1"/>
<param name="mnRipupLevel" value="0"/>
</pass>
<pass name="Optimize2" refer="Optimize1" active="yes">
<param name="cfNonPref" value="0"/>
<param name="cfChangeDir" value="6"/>
<param name="cfExtdStep" value="0"/>
<param name="cfBonusStep" value="2"/>
<param name="cfMalusStep" value="2"/>
<param name="cfPadImpact" value="2"/>
<param name="cfSmdImpact" value="2"/>
<param name="cfHugging" value="0"/>
</pass>
<pass name="Optimize3" refer="Optimize2" active="yes">
<param name="cfChangeDir" value="8"/>
<param name="cfPadImpact" value="0"/>
<param name="cfSmdImpact" value="0"/>
</pass>
<pass name="Optimize4" refer="Optimize3" active="yes">
<param name="cfChangeDir" value="25"/>
</pass>
</autorouter>
<elements>
<element name="C1" library="adafruit" package="C0805" value="10µF" x="19.74" y="33.44" smashed="yes" rot="R270">
<attribute name="NAME" x="20.906" y="34.429" size="0.6096" layer="25" rot="R270"/>
</element>
<element name="C3" library="adafruit" package="C0805" value="10µF" x="15.79" y="28.26" smashed="yes" rot="R180">
<attribute name="NAME" x="16.279" y="26.894" size="0.8128" layer="25" rot="R180"/>
</element>
<element name="C4" library="adafruit" package="C0805" value="10µF" x="28.49" y="18.36" smashed="yes">
<attribute name="NAME" x="27.601" y="19.876" size="0.8128" layer="25"/>
</element>
<element name="D1" library="SparkFun-DiscreteSemi" package="SMA-DIODE" value="MBRA140" x="26.01" y="34.21" smashed="yes" rot="R180">
<attribute name="PROD_ID" value="DIO-08053" x="26.01" y="34.21" size="1.778" layer="27" rot="R180" display="off"/>
<attribute name="NAME" x="26.796" y="34.059" size="0.4064" layer="25" rot="R180"/>
<attribute name="VALUE" x="28.256" y="36.559" size="0.8128" layer="27" rot="R180"/>
</element>
<element name="D3" library="SparkFun-DiscreteSemi" package="SMA-DIODE" value="MBRA140" x="22.14" y="28.29" smashed="yes">
<attribute name="PROD_ID" value="DIO-08053" x="22.14" y="28.29" size="1.778" layer="27" display="off"/>
<attribute name="NAME" x="21.354" y="25.941" size="0.8128" layer="25"/>
<attribute name="VALUE" x="19.894" y="29.941" size="0.8128" layer="27"/>
</element>
<element name="JP2" library="i2c" package="I2C_CONNECTOR" value="" x="46.76" y="26.22" smashed="yes" rot="R90">
<attribute name="NAME" x="48.31" y="18.97" size="0.8128" layer="25" rot="R90"/>
<attribute name="VALUE" x="51.06" y="21.07" size="1.77" layer="25" rot="R90"/>
</element>
<element name="R1" library="adafruit" package="M0805" value="1k" x="32.64" y="17.25" smashed="yes" rot="R90">
<attribute name="NAME" x="34.674" y="16.584" size="0.8128" layer="25" rot="R90"/>
</element>
<element name="R2" library="adafruit" package="M0805" value="1k" x="16.64" y="38.17" smashed="yes" rot="R90">
<attribute name="NAME" x="18.624" y="37.654" size="0.8128" layer="25" rot="R90"/>
</element>
<element name="R3" library="adafruit" package="M0805" value="1k" x="13.71" y="42.24" smashed="yes" rot="R270">
<attribute name="NAME" x="11.726" y="42.756" size="0.8128" layer="25" rot="R270"/>
</element>
<element name="R4" library="adafruit" package="M0805" value="1k" x="23.68" y="22.71" smashed="yes">
<attribute name="NAME" x="23.414" y="23.976" size="0.8128" layer="25"/>
</element>
<element name="R5" library="adafruit" package="M0805" value="10k" x="37.14" y="25.41" smashed="yes" rot="R90">
<attribute name="NAME" x="36.124" y="24.394" size="0.8128" layer="25" rot="R90"/>
</element>
<element name="R6" library="adafruit" package="M0805" value="10k" x="37.16" y="21.17" smashed="yes" rot="R270">
<attribute name="NAME" x="38.176" y="22.186" size="0.8128" layer="25" rot="R270"/>
</element>
<element name="R7" library="adafruit" package="M0805" value="1k" x="13.71" y="37.9" smashed="yes" rot="R270">
<attribute name="NAME" x="11.726" y="37.916" size="0.8128" layer="25" rot="R270"/>
</element>
<element name="SV1" library="con-lstb" package="MA03-2" value="" x="24.48" y="4.92" smashed="yes" rot="R180">
<attribute name="OC_NEWARK" value="unknown" x="24.48" y="4.92" size="1.778" layer="27" rot="R180" display="off"/>
<attribute name="MPN" value="" x="24.48" y="4.92" size="1.778" layer="27" rot="R180" display="off"/>
<attribute name="MF" value="" x="24.48" y="4.92" size="1.778" layer="27" rot="R180" display="off"/>
<attribute name="OC_FARNELL" value="unknown" x="24.48" y="4.92" size="1.778" layer="27" rot="R180" display="off"/>
<attribute name="VALUE" x="25.75" y="9.111" size="1.27" layer="27" ratio="10" rot="R180"/>
</element>
<element name="TP1" library="SparkFun-Passives" package="PAD.03X.05" value="TEST-POINT3X5" x="16.53" y="23.6"/>
<element name="U1" library="SparkFun-PowerIC" package="TDFN-8" value="MAX1704X" x="31.56" y="22.79" smashed="yes">
<attribute name="NAME" x="31.11" y="20.89" size="0.6096" layer="25"/>
<attribute name="VALUE" x="28.31" y="24.79" size="0.8128" layer="27"/>
<attribute name="PROD-ID" value="IC-10399" x="31.56" y="22.79" size="1.778" layer="27" display="off"/>
</element>
<element name="U2" library="SparkFun-PowerIC" package="SOT23-5" value="MCP73831" x="15.52" y="32.94">
<attribute name="PROD_ID" value="IC-09995" x="15.52" y="32.94" size="1.778" layer="27" display="off"/>
</element>
<element name="JP1" library="i2c" package="I2C_CONNECTOR" value="" x="9.35355625" y="11.0606625" smashed="yes" rot="R135">
<attribute name="NAME" x="6.333453125" y="16.1159375" size="0.8128" layer="25" rot="R135"/>
<attribute name="VALUE" x="16.0357125" y="10.45961875" size="1.77" layer="25" rot="R135"/>
</element>
<element name="LED1" library="adafruit" package="CHIPLED_0805" value="" x="16.5" y="42.5" smashed="yes">
<attribute name="NAME" x="18.23" y="41.23" size="0.8128" layer="25" rot="R90"/>
<attribute name="VALUE" x="19.04" y="41.23" size="1.27" layer="27" rot="R90"/>
</element>
<element name="C2" library="adafruit" package="C0805" value="10µF" x="28.5" y="15.5" smashed="yes">
<attribute name="NAME" x="27.861" y="13.666" size="0.8128" layer="25"/>
</element>
<element name="JP3" library="FCI_MicroUsb_Connector" package="USB-MICROB" value="USB-MICROB" x="25.85" y="46.45" smashed="yes" rot="R180">
<attribute name="VALUE" x="29.705" y="49.075" size="0.762" layer="27" rot="R180"/>
</element>
</elements>
<signals>
<signal name="GND">
<contactref element="U2" pad="2"/>
<contactref element="C3" pad="2"/>
<contactref element="C1" pad="2"/>
<contactref element="C4" pad="2"/>
<contactref element="U1" pad="4"/>
<contactref element="U1" pad="EP"/>
<contactref element="U1" pad="1"/>
<contactref element="R1" pad="1"/>
<contactref element="R3" pad="1"/>
<contactref element="SV1" pad="6"/>
<contactref element="SV1" pad="4"/>
<contactref element="SV1" pad="2"/>
<contactref element="JP2" pad="1"/>
<contactref element="JP1" pad="1"/>
<wire x1="15.52" y1="31.6399" x2="15.5" y2="31.6199" width="0.4064" layer="1"/>
<wire x1="15.5" y1="31.6199" x2="15.5" y2="30" width="0.4064" layer="1"/>
<wire x1="15.5" y1="30" x2="14.94" y2="29.44" width="0.4064" layer="1"/>
<wire x1="14.94" y1="29.44" x2="14.94" y2="28.26" width="0.4064" layer="1"/>
<contactref element="C2" pad="2"/>
<wire x1="29.35" y1="15.5" x2="29.34" y2="15.51" width="0.4064" layer="1"/>
<wire x1="29.34" y1="15.51" x2="29.34" y2="18.36" width="0.4064" layer="1"/>
<wire x1="29.34" y1="18.36" x2="31.56" y2="20.58" width="0.4064" layer="1"/>
<wire x1="31.56" y1="20.58" x2="31.56" y2="22.79" width="0.4064" layer="1"/>
<wire x1="31.56" y1="22.79" x2="30.81" y2="22.04" width="0.254" layer="1"/>
<wire x1="30.81" y1="22.04" x2="30.16" y2="22.04" width="0.254" layer="1"/>
<wire x1="30.16" y1="23.54" x2="30.2" y2="23.5" width="0.254" layer="1"/>
<wire x1="30.2" y1="23.5" x2="31.5" y2="23.5" width="0.254" layer="1"/>
<wire x1="31.5" y1="23.5" x2="31.56" y2="23.44" width="0.254" layer="1"/>
<wire x1="31.56" y1="23.44" x2="31.56" y2="22.79" width="0.254" layer="1"/>
<polygon width="0.3048" layer="1" isolate="0.6096">
<vertex x="14.5" y="50"/>
<vertex x="0" y="35.5"/>
<vertex x="0" y="15"/>
<vertex x="15" y="0"/>
<vertex x="35.5" y="0"/>
<vertex x="50" y="14.5"/>
<vertex x="50" y="35.5"/>
<vertex x="35.5" y="50"/>
</polygon>
<wire x1="13.71" y1="43.19" x2="12.69" y2="43.19" width="0.3048" layer="1"/>
<wire x1="12.69" y1="43.19" x2="11.5" y2="42" width="0.3048" layer="1"/>
<wire x1="13.71" y1="43.19" x2="12.99" y2="43.19" width="0.3048" layer="1"/>
<wire x1="12.99" y1="43.19" x2="10.55" y2="40.75" width="0.3048" layer="1"/>
<wire x1="10.55" y1="40.75" x2="10.55" y2="39.55" width="0.3048" layer="1"/>
<wire x1="10.55" y1="39.55" x2="10.5" y2="39.5" width="0.3048" layer="1"/>
<via x="10.5" y="39.5" extent="1-16" drill="0.6" shape="square"/>
<wire x1="10.5" y1="39.5" x2="10.5" y2="32" width="0.6096" layer="16"/>
<via x="10.5" y="32" extent="1-16" drill="0.6" shape="square"/>
<wire x1="10.5" y1="32" x2="11.2" y2="32" width="0.3048" layer="1"/>
<wire x1="11.2" y1="32" x2="14.94" y2="28.26" width="0.3048" layer="1"/>
</signal>
<signal name="VIN">
<contactref element="U2" pad="4"/>
<contactref element="D1" pad="C"/>
<contactref element="D3" pad="C"/>
<contactref element="C1" pad="1"/>
<contactref element="R2" pad="1"/>
<wire x1="16.5" y1="34.2701" x2="16.47" y2="34.2401" width="0.4064" layer="1"/>
<wire x1="16.5" y1="38" x2="16.47" y2="37.97" width="0.4064" layer="1"/>
<wire x1="16.47" y1="37.97" x2="16.47" y2="34.2401" width="0.4064" layer="1"/>
<wire x1="19.74" y1="34.29" x2="19.6901" y2="34.2401" width="0.4064" layer="1"/>
<wire x1="19.6901" y1="34.2401" x2="16.47" y2="34.2401" width="0.4064" layer="1"/>
<wire x1="23.86" y1="34.21" x2="23.44" y2="33.79" width="0.4064" layer="1"/>
<wire x1="23.44" y1="33.79" x2="22.94" y2="34.29" width="1.016" layer="1"/>
<wire x1="22.94" y1="34.29" x2="19.74" y2="34.29" width="1.016" layer="1"/>
<wire x1="23.44" y1="33.79" x2="23.71" y2="33.52" width="0.4064" layer="1"/>
<wire x1="24.29" y1="28.29" x2="23.86" y2="28.72" width="0.4064" layer="1"/>
<wire x1="23.86" y1="28.72" x2="23.86" y2="34.21" width="0.4064" layer="1"/>
<wire x1="16.5" y1="38" x2="16.64" y2="37.22" width="0" layer="19" extent="1-1"/>
</signal>
<signal name="N$2">
<contactref element="U2" pad="1"/>
<contactref element="LED1" pad="C"/>
<wire x1="11.5" y1="34.5" x2="12.5" y2="34.5" width="0.4064" layer="1"/>
<wire x1="12.5" y1="34.5" x2="13.5" y2="33.5" width="0.4064" layer="1"/>
<wire x1="13.5" y1="33.5" x2="13.5" y2="32" width="0.4064" layer="1"/>
<wire x1="13.5" y1="32" x2="13.8601" y2="31.6399" width="0.4064" layer="1"/>
<wire x1="13.8601" y1="31.6399" x2="14.57" y2="31.6399" width="0.4064" layer="1"/>
<wire x1="15" y1="45" x2="16" y2="44" width="0.3048" layer="1"/>
<wire x1="16" y1="44" x2="15.95" y2="44" width="0.3048" layer="1"/>
<wire x1="15.95" y1="44" x2="16.5" y2="43.55" width="0.3048" layer="1"/>
<wire x1="15" y1="45" x2="13" y2="45" width="0.3048" layer="1"/>
<wire x1="13" y1="45" x2="8" y2="40" width="0.3048" layer="1"/>
<wire x1="8" y1="40" x2="8" y2="38" width="0.3048" layer="1"/>
<wire x1="8" y1="38" x2="11.5" y2="34.5" width="0.3048" layer="1"/>
</signal>
<signal name="N$3">
<contactref element="U2" pad="5"/>
<contactref element="R7" pad="2"/>
<wire x1="14.57" y1="35.09" x2="14.57" y2="34.2401" width="0.4064" layer="1"/>
<wire x1="13.71" y1="36.95" x2="13.71" y2="35.95" width="0.3048" layer="1"/>
<wire x1="13.71" y1="35.95" x2="14.57" y2="35.09" width="0.3048" layer="1"/>
</signal>
<signal name="VBAT">
<contactref element="U2" pad="3"/>
<contactref element="D3" pad="A"/>
<contactref element="TP1" pad="P$1"/>
<contactref element="C3" pad="1"/>
<contactref element="R4" pad="1"/>
<contactref element="SV1" pad="1"/>
<contactref element="SV1" pad="3"/>
<contactref element="SV1" pad="5"/>
<wire x1="16.64" y1="28.26" x2="16.47" y2="28.43" width="0.4064" layer="1"/>
<wire x1="16.47" y1="28.43" x2="16.47" y2="31.6399" width="0.4064" layer="1"/>
<wire x1="19.99" y1="28.29" x2="19.96" y2="28.26" width="0.4064" layer="1"/>
<wire x1="19.96" y1="28.26" x2="16.64" y2="28.26" width="1.016" layer="1"/>
<wire x1="19.99" y1="28.29" x2="20" y2="28.28" width="1.016" layer="1"/>
<wire x1="20" y1="28.28" x2="20" y2="23" width="1.016" layer="1"/>
<wire x1="20" y1="23" x2="20" y2="22.5" width="1.016" layer="1"/>
<wire x1="20" y1="22.5" x2="20" y2="8" width="1.016" layer="1"/>
<wire x1="20" y1="8" x2="21.81" y2="6.19" width="1.016" layer="1"/>
<wire x1="21.81" y1="6.19" x2="21.94" y2="6.19" width="1.016" layer="1"/>
<wire x1="21.94" y1="6.19" x2="24.48" y2="6.19" width="1.016" layer="1"/>
<wire x1="24.48" y1="6.19" x2="27.02" y2="6.19" width="1.016" layer="1"/>
<wire x1="22.73" y1="22.71" x2="22.52" y2="22.5" width="1.016" layer="1"/>
<wire x1="22.52" y1="22.5" x2="20" y2="22.5" width="1.016" layer="1"/>
<wire x1="16.53" y1="23.6" x2="19.4" y2="23.6" width="0.6096" layer="1"/>
<wire x1="19.4" y1="23.6" x2="20" y2="23" width="0.3048" layer="1"/>
</signal>
<signal name="N$5">
<contactref element="U1" pad="2"/>
<contactref element="R4" pad="2"/>
<wire x1="24.63" y1="22.71" x2="24.96" y2="23.04" width="0.4064" layer="1"/>
<wire x1="30.16" y1="23.04" x2="24.54" y2="23.04" width="0.3048" layer="1"/>
<wire x1="24.54" y1="23.04" x2="24.5" y2="23" width="0.3048" layer="1"/>
<wire x1="24.63" y1="22.71" x2="24.5" y2="23" width="0" layer="19" extent="1-1"/>
</signal>
<signal name="3.3V">
<contactref element="U1" pad="3"/>
<contactref element="C4" pad="1"/>
<contactref element="R6" pad="2"/>
<contactref element="R5" pad="2"/>
<contactref element="C2" pad="1"/>
<wire x1="30.16" y1="22.54" x2="29.04" y2="22.54" width="0.3048" layer="1"/>
<wire x1="29.04" y1="22.54" x2="28" y2="21.5" width="0.3048" layer="1"/>
<wire x1="28" y1="21.5" x2="28" y2="18.72" width="0.6096" layer="1"/>
<wire x1="28" y1="18.72" x2="27.64" y2="18.36" width="0.3048" layer="1"/>
<wire x1="27.64" y1="18.36" x2="27.64" y2="15.51" width="0.6096" layer="1"/>
<wire x1="27.64" y1="15.51" x2="27.65" y2="15.5" width="0.3048" layer="1"/>
<polygon width="0.3048" layer="16" isolate="0.6096">
<vertex x="0" y="35.5"/>
<vertex x="0" y="14.5"/>
<vertex x="14.5" y="0"/>
<vertex x="35.5" y="0"/>
<vertex x="50" y="14.5"/>
<vertex x="50" y="35.5"/>
<vertex x="35.5" y="50"/>
<vertex x="14.5" y="50"/>
</polygon>
<contactref element="JP2" pad="2"/>
<contactref element="JP1" pad="2"/>
<via x="24" y="18.5" extent="1-16" drill="0.6" shape="square"/>
<wire x1="27.5" y1="18.5" x2="27.64" y2="18.36" width="0.3048" layer="1"/>
<via x="24" y="16.5" extent="1-16" drill="0.6" shape="square"/>
<via x="24" y="14.5" extent="1-16" drill="0.6" shape="square"/>
<wire x1="24" y1="18.5" x2="24" y2="16.5" width="0.6096" layer="1"/>
<wire x1="24" y1="16.5" x2="24" y2="14.5" width="0.6096" layer="1"/>
<wire x1="24" y1="14.5" x2="26.65" y2="14.5" width="0.6096" layer="1"/>
<wire x1="26.65" y1="14.5" x2="27.65" y2="15.5" width="0.6096" layer="1"/>
<wire x1="37.16" y1="20.22" x2="37.16" y2="17.66" width="0.6096" layer="1"/>
<wire x1="37.16" y1="17.66" x2="37" y2="17.5" width="0.3048" layer="1"/>
<via x="37" y="17.5" extent="1-16" drill="0.6" shape="square"/>
<wire x1="35" y1="15.5" x2="37" y2="17.5" width="0.3048" layer="16"/>
<wire x1="37.14" y1="26.36" x2="39.86" y2="26.36" width="0.6096" layer="1"/>
<wire x1="39.86" y1="26.36" x2="41" y2="27.5" width="0.6096" layer="1"/>
<via x="41" y="27.5" extent="1-16" drill="0.6" shape="square"/>
<wire x1="41" y1="27.5" x2="41" y2="30.5" width="0.3048" layer="16"/>
</signal>
<signal name="SDA">
<contactref element="U1" pad="8"/>
<contactref element="JP2" pad="3"/>
<wire x1="35.11" y1="24.46" x2="34.2" y2="23.55" width="0.3048" layer="1"/>
<wire x1="34.2" y1="23.55" x2="32.97" y2="23.55" width="0.3048" layer="1"/>
<wire x1="32.97" y1="23.55" x2="32.96" y2="23.54" width="0.3048" layer="1"/>
<wire x1="42.96" y1="24.46" x2="45.5" y2="27" width="0.3048" layer="1"/>
<wire x1="45.5" y1="27" x2="46.54" y2="27" width="0.3048" layer="1"/>
<wire x1="46.54" y1="27" x2="46.76" y2="27.22" width="0.3048" layer="1"/>
<contactref element="R5" pad="1"/>
<wire x1="37.14" y1="24.46" x2="42.96" y2="24.46" width="0.3048" layer="1"/>
<wire x1="37.14" y1="24.46" x2="35.11" y2="24.46" width="0.3048" layer="1"/>
<contactref element="JP1" pad="3"/>
<wire x1="8.646446875" y1="11.76776875" x2="18.23223125" y2="11.76776875" width="0.6096" layer="16"/>
<wire x1="43.5" y1="18.5" x2="43.5" y2="19" width="0.6096" layer="16"/>
<wire x1="43.5" y1="19" x2="43.5" y2="23.96" width="0.6096" layer="16"/>
<wire x1="43.5" y1="23.96" x2="46.76" y2="27.22" width="0.6096" layer="16"/>
<wire x1="18.23223125" y1="11.76776875" x2="19" y2="11" width="0.6096" layer="16"/>
<wire x1="19" y1="11" x2="36.5" y2="11" width="0.6096" layer="16"/>
<wire x1="36.5" y1="11" x2="43.5" y2="18" width="0.6096" layer="16"/>
<wire x1="43.5" y1="18" x2="43.5" y2="18.5" width="0.6096" layer="16"/>
</signal>
<signal name="SCL">
<contactref element="U1" pad="7"/>
<contactref element="JP2" pad="4"/>
<wire x1="32.96" y1="23.04" x2="35.26" y2="23.04" width="0.3048" layer="1"/>
<wire x1="35.26" y1="23.04" x2="35.95" y2="22.35" width="0.3048" layer="1"/>
<wire x1="35.95" y1="22.35" x2="36.93" y2="22.35" width="0.3048" layer="1"/>
<via x="42" y="21" extent="1-16" drill="0.6" shape="square"/>
<wire x1="42" y1="21" x2="42" y2="24.46" width="0.6096" layer="16"/>
<wire x1="42" y1="24.46" x2="46.76" y2="29.22" width="0.6096" layer="16"/>
<contactref element="JP1" pad="4"/>
<wire x1="7.232234375" y1="13.18198125" x2="18.81801875" y2="13.18198125" width="0.6096" layer="16"/>
<wire x1="18.81801875" y1="13.18198125" x2="19.5" y2="12.5" width="0.6096" layer="16"/>
<wire x1="19.5" y1="12.5" x2="35.5" y2="12.5" width="0.6096" layer="16"/>
<wire x1="35.5" y1="12.5" x2="42" y2="19" width="0.6096" layer="16"/>
<wire x1="42" y1="19" x2="42" y2="21" width="0.6096" layer="16"/>
<contactref element="R6" pad="1"/>
<wire x1="37.16" y1="22.12" x2="37.28" y2="22" width="0.3048" layer="1"/>
<wire x1="37.28" y1="22" x2="40" y2="22" width="0.3048" layer="1"/>
<wire x1="40" y1="22" x2="41" y2="21" width="0.3048" layer="1"/>
<wire x1="41" y1="21" x2="42" y2="21" width="0.3048" layer="1"/>
<wire x1="37.16" y1="22.12" x2="36.93" y2="22.35" width="0" layer="19" extent="1-1"/>
</signal>
<signal name="N$6">
<contactref element="U1" pad="6"/>
<contactref element="R1" pad="2"/>
<wire x1="32.64" y1="18.2" x2="33.7" y2="18.2" width="0.3048" layer="1"/>
<wire x1="33.7" y1="18.2" x2="34.5" y2="19" width="0.3048" layer="1"/>
<wire x1="34.5" y1="19" x2="34.5" y2="22" width="0.3048" layer="1"/>
<wire x1="34.5" y1="22" x2="34" y2="22.55" width="0.3048" layer="1"/>
<wire x1="34" y1="22.55" x2="33" y2="22.55" width="0.3048" layer="1"/>
<wire x1="33" y1="22.55" x2="32.96" y2="22.54" width="0.3048" layer="1"/>
</signal>
<signal name="N$8">
<contactref element="D1" pad="A"/>
<wire x1="28.16" y1="34.21" x2="28.2" y2="34.25" width="0.4064" layer="1"/>
<wire x1="28.2" y1="34.25" x2="29.5" y2="34.25" width="1.016" layer="1"/>
<wire x1="29.5" y1="34.25" x2="30" y2="34.75" width="1.016" layer="1"/>
<wire x1="30" y1="34.75" x2="30" y2="37" width="1.016" layer="1"/>
<wire x1="30" y1="37" x2="28.65" y2="38.35" width="1.016" layer="1"/>
<wire x1="28.65" y1="38.35" x2="27.15" y2="38.35" width="1.016" layer="1"/>
<contactref element="JP3" pad="VBUS"/>
<wire x1="27.15" y1="43.8" x2="27.15" y2="38.35" width="0.4064" layer="1"/>
</signal>
<signal name="N$10">
<contactref element="R7" pad="1"/>
<contactref element="R3" pad="2"/>
<wire x1="13.71" y1="41.29" x2="13.71" y2="38.85" width="0.4064" layer="1"/>
</signal>
<signal name="N$1">
<contactref element="R2" pad="2"/>
<contactref element="LED1" pad="A"/>
<wire x1="16.64" y1="39.12" x2="16.64" y2="41.31" width="0.3048" layer="1"/>
<wire x1="16.64" y1="41.31" x2="16.5" y2="41.45" width="0.3048" layer="1"/>
</signal>
</signals>
</board>
</drawing>
</eagle>
